(kicad_sch (version 20230121) (generator eeschema)

  (uuid 6897d180-d3db-4f54-ad6f-7a3c0421f462)

  (paper "A4")

  (lib_symbols
    (symbol "Connector:Screw_Terminal_01x02" (pin_names (offset 1.016) hide) (in_bom yes) (on_board yes)
      (property "Reference" "J" (at 0 2.54 0)
        (effects (font (size 1.27 1.27)))
      )
      (property "Value" "Screw_Terminal_01x02" (at 0 -5.08 0)
        (effects (font (size 1.27 1.27)))
      )
      (property "Footprint" "" (at 0 0 0)
        (effects (font (size 1.27 1.27)) hide)
      )
      (property "Datasheet" "~" (at 0 0 0)
        (effects (font (size 1.27 1.27)) hide)
      )
      (property "ki_keywords" "screw terminal" (at 0 0 0)
        (effects (font (size 1.27 1.27)) hide)
      )
      (property "ki_description" "Generic screw terminal, single row, 01x02, script generated (kicad-library-utils/schlib/autogen/connector/)" (at 0 0 0)
        (effects (font (size 1.27 1.27)) hide)
      )
      (property "ki_fp_filters" "TerminalBlock*:*" (at 0 0 0)
        (effects (font (size 1.27 1.27)) hide)
      )
      (symbol "Screw_Terminal_01x02_1_1"
        (rectangle (start -1.27 1.27) (end 1.27 -3.81)
          (stroke (width 0.254) (type default))
          (fill (type background))
        )
        (circle (center 0 -2.54) (radius 0.635)
          (stroke (width 0.1524) (type default))
          (fill (type none))
        )
        (polyline
          (pts
            (xy -0.5334 -2.2098)
            (xy 0.3302 -3.048)
          )
          (stroke (width 0.1524) (type default))
          (fill (type none))
        )
        (polyline
          (pts
            (xy -0.5334 0.3302)
            (xy 0.3302 -0.508)
          )
          (stroke (width 0.1524) (type default))
          (fill (type none))
        )
        (polyline
          (pts
            (xy -0.3556 -2.032)
            (xy 0.508 -2.8702)
          )
          (stroke (width 0.1524) (type default))
          (fill (type none))
        )
        (polyline
          (pts
            (xy -0.3556 0.508)
            (xy 0.508 -0.3302)
          )
          (stroke (width 0.1524) (type default))
          (fill (type none))
        )
        (circle (center 0 0) (radius 0.635)
          (stroke (width 0.1524) (type default))
          (fill (type none))
        )
        (pin passive line (at -5.08 0 0) (length 3.81)
          (name "Pin_1" (effects (font (size 1.27 1.27))))
          (number "1" (effects (font (size 1.27 1.27))))
        )
        (pin passive line (at -5.08 -2.54 0) (length 3.81)
          (name "Pin_2" (effects (font (size 1.27 1.27))))
          (number "2" (effects (font (size 1.27 1.27))))
        )
      )
    )
    (symbol "Connector:Screw_Terminal_01x03" (pin_names (offset 1.016) hide) (in_bom yes) (on_board yes)
      (property "Reference" "J" (at 0 5.08 0)
        (effects (font (size 1.27 1.27)))
      )
      (property "Value" "Screw_Terminal_01x03" (at 0 -5.08 0)
        (effects (font (size 1.27 1.27)))
      )
      (property "Footprint" "" (at 0 0 0)
        (effects (font (size 1.27 1.27)) hide)
      )
      (property "Datasheet" "~" (at 0 0 0)
        (effects (font (size 1.27 1.27)) hide)
      )
      (property "ki_keywords" "screw terminal" (at 0 0 0)
        (effects (font (size 1.27 1.27)) hide)
      )
      (property "ki_description" "Generic screw terminal, single row, 01x03, script generated (kicad-library-utils/schlib/autogen/connector/)" (at 0 0 0)
        (effects (font (size 1.27 1.27)) hide)
      )
      (property "ki_fp_filters" "TerminalBlock*:*" (at 0 0 0)
        (effects (font (size 1.27 1.27)) hide)
      )
      (symbol "Screw_Terminal_01x03_1_1"
        (rectangle (start -1.27 3.81) (end 1.27 -3.81)
          (stroke (width 0.254) (type default))
          (fill (type background))
        )
        (circle (center 0 -2.54) (radius 0.635)
          (stroke (width 0.1524) (type default))
          (fill (type none))
        )
        (polyline
          (pts
            (xy -0.5334 -2.2098)
            (xy 0.3302 -3.048)
          )
          (stroke (width 0.1524) (type default))
          (fill (type none))
        )
        (polyline
          (pts
            (xy -0.5334 0.3302)
            (xy 0.3302 -0.508)
          )
          (stroke (width 0.1524) (type default))
          (fill (type none))
        )
        (polyline
          (pts
            (xy -0.5334 2.8702)
            (xy 0.3302 2.032)
          )
          (stroke (width 0.1524) (type default))
          (fill (type none))
        )
        (polyline
          (pts
            (xy -0.3556 -2.032)
            (xy 0.508 -2.8702)
          )
          (stroke (width 0.1524) (type default))
          (fill (type none))
        )
        (polyline
          (pts
            (xy -0.3556 0.508)
            (xy 0.508 -0.3302)
          )
          (stroke (width 0.1524) (type default))
          (fill (type none))
        )
        (polyline
          (pts
            (xy -0.3556 3.048)
            (xy 0.508 2.2098)
          )
          (stroke (width 0.1524) (type default))
          (fill (type none))
        )
        (circle (center 0 0) (radius 0.635)
          (stroke (width 0.1524) (type default))
          (fill (type none))
        )
        (circle (center 0 2.54) (radius 0.635)
          (stroke (width 0.1524) (type default))
          (fill (type none))
        )
        (pin passive line (at -5.08 2.54 0) (length 3.81)
          (name "Pin_1" (effects (font (size 1.27 1.27))))
          (number "1" (effects (font (size 1.27 1.27))))
        )
        (pin passive line (at -5.08 0 0) (length 3.81)
          (name "Pin_2" (effects (font (size 1.27 1.27))))
          (number "2" (effects (font (size 1.27 1.27))))
        )
        (pin passive line (at -5.08 -2.54 0) (length 3.81)
          (name "Pin_3" (effects (font (size 1.27 1.27))))
          (number "3" (effects (font (size 1.27 1.27))))
        )
      )
    )
    (symbol "Device:C" (pin_numbers hide) (pin_names (offset 0.254)) (in_bom yes) (on_board yes)
      (property "Reference" "C" (at 0.635 2.54 0)
        (effects (font (size 1.27 1.27)) (justify left))
      )
      (property "Value" "C" (at 0.635 -2.54 0)
        (effects (font (size 1.27 1.27)) (justify left))
      )
      (property "Footprint" "" (at 0.9652 -3.81 0)
        (effects (font (size 1.27 1.27)) hide)
      )
      (property "Datasheet" "~" (at 0 0 0)
        (effects (font (size 1.27 1.27)) hide)
      )
      (property "ki_keywords" "cap capacitor" (at 0 0 0)
        (effects (font (size 1.27 1.27)) hide)
      )
      (property "ki_description" "Unpolarized capacitor" (at 0 0 0)
        (effects (font (size 1.27 1.27)) hide)
      )
      (property "ki_fp_filters" "C_*" (at 0 0 0)
        (effects (font (size 1.27 1.27)) hide)
      )
      (symbol "C_0_1"
        (polyline
          (pts
            (xy -2.032 -0.762)
            (xy 2.032 -0.762)
          )
          (stroke (width 0.508) (type default))
          (fill (type none))
        )
        (polyline
          (pts
            (xy -2.032 0.762)
            (xy 2.032 0.762)
          )
          (stroke (width 0.508) (type default))
          (fill (type none))
        )
      )
      (symbol "C_1_1"
        (pin passive line (at 0 3.81 270) (length 2.794)
          (name "~" (effects (font (size 1.27 1.27))))
          (number "1" (effects (font (size 1.27 1.27))))
        )
        (pin passive line (at 0 -3.81 90) (length 2.794)
          (name "~" (effects (font (size 1.27 1.27))))
          (number "2" (effects (font (size 1.27 1.27))))
        )
      )
    )
    (symbol "Device:C_Polarized" (pin_numbers hide) (pin_names (offset 0.254)) (in_bom yes) (on_board yes)
      (property "Reference" "C" (at 0.635 2.54 0)
        (effects (font (size 1.27 1.27)) (justify left))
      )
      (property "Value" "C_Polarized" (at 0.635 -2.54 0)
        (effects (font (size 1.27 1.27)) (justify left))
      )
      (property "Footprint" "" (at 0.9652 -3.81 0)
        (effects (font (size 1.27 1.27)) hide)
      )
      (property "Datasheet" "~" (at 0 0 0)
        (effects (font (size 1.27 1.27)) hide)
      )
      (property "ki_keywords" "cap capacitor" (at 0 0 0)
        (effects (font (size 1.27 1.27)) hide)
      )
      (property "ki_description" "Polarized capacitor" (at 0 0 0)
        (effects (font (size 1.27 1.27)) hide)
      )
      (property "ki_fp_filters" "CP_*" (at 0 0 0)
        (effects (font (size 1.27 1.27)) hide)
      )
      (symbol "C_Polarized_0_1"
        (rectangle (start -2.286 0.508) (end 2.286 1.016)
          (stroke (width 0) (type default))
          (fill (type none))
        )
        (polyline
          (pts
            (xy -1.778 2.286)
            (xy -0.762 2.286)
          )
          (stroke (width 0) (type default))
          (fill (type none))
        )
        (polyline
          (pts
            (xy -1.27 2.794)
            (xy -1.27 1.778)
          )
          (stroke (width 0) (type default))
          (fill (type none))
        )
        (rectangle (start 2.286 -0.508) (end -2.286 -1.016)
          (stroke (width 0) (type default))
          (fill (type outline))
        )
      )
      (symbol "C_Polarized_1_1"
        (pin passive line (at 0 3.81 270) (length 2.794)
          (name "~" (effects (font (size 1.27 1.27))))
          (number "1" (effects (font (size 1.27 1.27))))
        )
        (pin passive line (at 0 -3.81 90) (length 2.794)
          (name "~" (effects (font (size 1.27 1.27))))
          (number "2" (effects (font (size 1.27 1.27))))
        )
      )
    )
    (symbol "Device:R" (pin_numbers hide) (pin_names (offset 0)) (in_bom yes) (on_board yes)
      (property "Reference" "R" (at 2.032 0 90)
        (effects (font (size 1.27 1.27)))
      )
      (property "Value" "R" (at 0 0 90)
        (effects (font (size 1.27 1.27)))
      )
      (property "Footprint" "" (at -1.778 0 90)
        (effects (font (size 1.27 1.27)) hide)
      )
      (property "Datasheet" "~" (at 0 0 0)
        (effects (font (size 1.27 1.27)) hide)
      )
      (property "ki_keywords" "R res resistor" (at 0 0 0)
        (effects (font (size 1.27 1.27)) hide)
      )
      (property "ki_description" "Resistor" (at 0 0 0)
        (effects (font (size 1.27 1.27)) hide)
      )
      (property "ki_fp_filters" "R_*" (at 0 0 0)
        (effects (font (size 1.27 1.27)) hide)
      )
      (symbol "R_0_1"
        (rectangle (start -1.016 -2.54) (end 1.016 2.54)
          (stroke (width 0.254) (type default))
          (fill (type none))
        )
      )
      (symbol "R_1_1"
        (pin passive line (at 0 3.81 270) (length 1.27)
          (name "~" (effects (font (size 1.27 1.27))))
          (number "1" (effects (font (size 1.27 1.27))))
        )
        (pin passive line (at 0 -3.81 90) (length 1.27)
          (name "~" (effects (font (size 1.27 1.27))))
          (number "2" (effects (font (size 1.27 1.27))))
        )
      )
    )
    (symbol "Device:R_Potentiometer_Trim" (pin_names (offset 1.016) hide) (in_bom yes) (on_board yes)
      (property "Reference" "RV" (at -4.445 0 90)
        (effects (font (size 1.27 1.27)))
      )
      (property "Value" "R_Potentiometer_Trim" (at -2.54 0 90)
        (effects (font (size 1.27 1.27)))
      )
      (property "Footprint" "" (at 0 0 0)
        (effects (font (size 1.27 1.27)) hide)
      )
      (property "Datasheet" "~" (at 0 0 0)
        (effects (font (size 1.27 1.27)) hide)
      )
      (property "ki_keywords" "resistor variable trimpot trimmer" (at 0 0 0)
        (effects (font (size 1.27 1.27)) hide)
      )
      (property "ki_description" "Trim-potentiometer" (at 0 0 0)
        (effects (font (size 1.27 1.27)) hide)
      )
      (property "ki_fp_filters" "Potentiometer*" (at 0 0 0)
        (effects (font (size 1.27 1.27)) hide)
      )
      (symbol "R_Potentiometer_Trim_0_1"
        (polyline
          (pts
            (xy 1.524 0.762)
            (xy 1.524 -0.762)
          )
          (stroke (width 0) (type default))
          (fill (type none))
        )
        (polyline
          (pts
            (xy 2.54 0)
            (xy 1.524 0)
          )
          (stroke (width 0) (type default))
          (fill (type none))
        )
        (rectangle (start 1.016 2.54) (end -1.016 -2.54)
          (stroke (width 0.254) (type default))
          (fill (type none))
        )
      )
      (symbol "R_Potentiometer_Trim_1_1"
        (pin passive line (at 0 3.81 270) (length 1.27)
          (name "1" (effects (font (size 1.27 1.27))))
          (number "1" (effects (font (size 1.27 1.27))))
        )
        (pin passive line (at 3.81 0 180) (length 1.27)
          (name "2" (effects (font (size 1.27 1.27))))
          (number "2" (effects (font (size 1.27 1.27))))
        )
        (pin passive line (at 0 -3.81 90) (length 1.27)
          (name "3" (effects (font (size 1.27 1.27))))
          (number "3" (effects (font (size 1.27 1.27))))
        )
      )
    )
    (symbol "Mechanical:Heatsink" (pin_names (offset 1.016)) (in_bom yes) (on_board yes)
      (property "Reference" "HS" (at 0 5.08 0)
        (effects (font (size 1.27 1.27)))
      )
      (property "Value" "Heatsink" (at 0 -1.27 0)
        (effects (font (size 1.27 1.27)))
      )
      (property "Footprint" "" (at 0.3048 0 0)
        (effects (font (size 1.27 1.27)) hide)
      )
      (property "Datasheet" "~" (at 0.3048 0 0)
        (effects (font (size 1.27 1.27)) hide)
      )
      (property "ki_keywords" "thermal heat temperature" (at 0 0 0)
        (effects (font (size 1.27 1.27)) hide)
      )
      (property "ki_description" "Heatsink" (at 0 0 0)
        (effects (font (size 1.27 1.27)) hide)
      )
      (property "ki_fp_filters" "Heatsink_*" (at 0 0 0)
        (effects (font (size 1.27 1.27)) hide)
      )
      (symbol "Heatsink_0_1"
        (polyline
          (pts
            (xy -0.3302 1.27)
            (xy -0.9652 1.27)
            (xy -0.9652 3.81)
            (xy -1.6002 3.81)
            (xy -1.6002 1.27)
            (xy -2.2352 1.27)
            (xy -2.2352 3.81)
            (xy -2.8702 3.81)
            (xy -2.8702 0)
            (xy -0.9652 0)
          )
          (stroke (width 0.254) (type default))
          (fill (type background))
        )
        (polyline
          (pts
            (xy -0.3302 1.27)
            (xy -0.3302 3.81)
            (xy 0.3048 3.81)
            (xy 0.3048 1.27)
            (xy 0.9398 1.27)
            (xy 0.9398 3.81)
            (xy 1.5748 3.81)
            (xy 1.5748 1.27)
            (xy 2.2098 1.27)
            (xy 2.2098 3.81)
            (xy 2.8448 3.81)
            (xy 2.8448 0)
            (xy -0.9652 0)
          )
          (stroke (width 0.254) (type default))
          (fill (type background))
        )
      )
    )
    (symbol "Mechanical:MountingHole" (pin_names (offset 1.016)) (in_bom yes) (on_board yes)
      (property "Reference" "H" (at 0 5.08 0)
        (effects (font (size 1.27 1.27)))
      )
      (property "Value" "MountingHole" (at 0 3.175 0)
        (effects (font (size 1.27 1.27)))
      )
      (property "Footprint" "" (at 0 0 0)
        (effects (font (size 1.27 1.27)) hide)
      )
      (property "Datasheet" "~" (at 0 0 0)
        (effects (font (size 1.27 1.27)) hide)
      )
      (property "ki_keywords" "mounting hole" (at 0 0 0)
        (effects (font (size 1.27 1.27)) hide)
      )
      (property "ki_description" "Mounting Hole without connection" (at 0 0 0)
        (effects (font (size 1.27 1.27)) hide)
      )
      (property "ki_fp_filters" "MountingHole*" (at 0 0 0)
        (effects (font (size 1.27 1.27)) hide)
      )
      (symbol "MountingHole_0_1"
        (circle (center 0 0) (radius 1.27)
          (stroke (width 1.27) (type default))
          (fill (type none))
        )
      )
    )
    (symbol "Transistor_BJT:BD909" (pin_names (offset 0) hide) (in_bom yes) (on_board yes)
      (property "Reference" "Q" (at 6.35 1.905 0)
        (effects (font (size 1.27 1.27)) (justify left))
      )
      (property "Value" "BD909" (at 6.35 0 0)
        (effects (font (size 1.27 1.27)) (justify left))
      )
      (property "Footprint" "Package_TO_SOT_THT:TO-220-3_Vertical" (at 6.35 -1.905 0)
        (effects (font (size 1.27 1.27) italic) (justify left) hide)
      )
      (property "Datasheet" "http://www.st.com/internet/com/TECHNICAL_RESOURCES/TECHNICAL_LITERATURE/DATASHEET/CD00001277.pdf" (at 0 0 0)
        (effects (font (size 1.27 1.27)) (justify left) hide)
      )
      (property "ki_keywords" "Power NPN Transistor" (at 0 0 0)
        (effects (font (size 1.27 1.27)) hide)
      )
      (property "ki_description" "15A, Silicon Power NPN Transistors, TO-220" (at 0 0 0)
        (effects (font (size 1.27 1.27)) hide)
      )
      (property "ki_fp_filters" "TO?220*" (at 0 0 0)
        (effects (font (size 1.27 1.27)) hide)
      )
      (symbol "BD909_0_1"
        (polyline
          (pts
            (xy 0.635 0.635)
            (xy 2.54 2.54)
          )
          (stroke (width 0) (type default))
          (fill (type none))
        )
        (polyline
          (pts
            (xy 0.635 -0.635)
            (xy 2.54 -2.54)
            (xy 2.54 -2.54)
          )
          (stroke (width 0) (type default))
          (fill (type none))
        )
        (polyline
          (pts
            (xy 0.635 1.905)
            (xy 0.635 -1.905)
            (xy 0.635 -1.905)
          )
          (stroke (width 0.508) (type default))
          (fill (type none))
        )
        (polyline
          (pts
            (xy 1.27 -1.778)
            (xy 1.778 -1.27)
            (xy 2.286 -2.286)
            (xy 1.27 -1.778)
            (xy 1.27 -1.778)
          )
          (stroke (width 0) (type default))
          (fill (type outline))
        )
        (circle (center 1.27 0) (radius 2.8194)
          (stroke (width 0.254) (type default))
          (fill (type none))
        )
      )
      (symbol "BD909_1_1"
        (pin input line (at -5.08 0 0) (length 5.715)
          (name "B" (effects (font (size 1.27 1.27))))
          (number "1" (effects (font (size 1.27 1.27))))
        )
        (pin passive line (at 2.54 5.08 270) (length 2.54)
          (name "C" (effects (font (size 1.27 1.27))))
          (number "2" (effects (font (size 1.27 1.27))))
        )
        (pin passive line (at 2.54 -5.08 90) (length 2.54)
          (name "E" (effects (font (size 1.27 1.27))))
          (number "3" (effects (font (size 1.27 1.27))))
        )
      )
    )
    (symbol "Transistor_BJT:BD910" (pin_names (offset 0) hide) (in_bom yes) (on_board yes)
      (property "Reference" "Q" (at 6.35 1.905 0)
        (effects (font (size 1.27 1.27)) (justify left))
      )
      (property "Value" "BD910" (at 6.35 0 0)
        (effects (font (size 1.27 1.27)) (justify left))
      )
      (property "Footprint" "Package_TO_SOT_THT:TO-220-3_Vertical" (at 6.35 -1.905 0)
        (effects (font (size 1.27 1.27) italic) (justify left) hide)
      )
      (property "Datasheet" "http://www.st.com/internet/com/TECHNICAL_RESOURCES/TECHNICAL_LITERATURE/DATASHEET/CD00001277.pdf" (at 0 0 0)
        (effects (font (size 1.27 1.27)) (justify left) hide)
      )
      (property "ki_keywords" "Power PNP Transistor" (at 0 0 0)
        (effects (font (size 1.27 1.27)) hide)
      )
      (property "ki_description" "15A, Silicon Power PNP Transistors, TO-220" (at 0 0 0)
        (effects (font (size 1.27 1.27)) hide)
      )
      (property "ki_fp_filters" "TO?220*" (at 0 0 0)
        (effects (font (size 1.27 1.27)) hide)
      )
      (symbol "BD910_0_1"
        (polyline
          (pts
            (xy 0.635 0.635)
            (xy 2.54 2.54)
          )
          (stroke (width 0) (type default))
          (fill (type none))
        )
        (polyline
          (pts
            (xy 0.635 -0.635)
            (xy 2.54 -2.54)
            (xy 2.54 -2.54)
          )
          (stroke (width 0) (type default))
          (fill (type none))
        )
        (polyline
          (pts
            (xy 0.635 1.905)
            (xy 0.635 -1.905)
            (xy 0.635 -1.905)
          )
          (stroke (width 0.508) (type default))
          (fill (type none))
        )
        (polyline
          (pts
            (xy 2.286 -1.778)
            (xy 1.778 -2.286)
            (xy 1.27 -1.27)
            (xy 2.286 -1.778)
            (xy 2.286 -1.778)
          )
          (stroke (width 0) (type default))
          (fill (type outline))
        )
        (circle (center 1.27 0) (radius 2.8194)
          (stroke (width 0.254) (type default))
          (fill (type none))
        )
      )
      (symbol "BD910_1_1"
        (pin input line (at -5.08 0 0) (length 5.715)
          (name "B" (effects (font (size 1.27 1.27))))
          (number "1" (effects (font (size 1.27 1.27))))
        )
        (pin passive line (at 2.54 5.08 270) (length 2.54)
          (name "C" (effects (font (size 1.27 1.27))))
          (number "2" (effects (font (size 1.27 1.27))))
        )
        (pin passive line (at 2.54 -5.08 90) (length 2.54)
          (name "E" (effects (font (size 1.27 1.27))))
          (number "3" (effects (font (size 1.27 1.27))))
        )
      )
    )
    (symbol "power:GND" (power) (pin_names (offset 0)) (in_bom yes) (on_board yes)
      (property "Reference" "#PWR" (at 0 -6.35 0)
        (effects (font (size 1.27 1.27)) hide)
      )
      (property "Value" "GND" (at 0 -3.81 0)
        (effects (font (size 1.27 1.27)))
      )
      (property "Footprint" "" (at 0 0 0)
        (effects (font (size 1.27 1.27)) hide)
      )
      (property "Datasheet" "" (at 0 0 0)
        (effects (font (size 1.27 1.27)) hide)
      )
      (property "ki_keywords" "global power" (at 0 0 0)
        (effects (font (size 1.27 1.27)) hide)
      )
      (property "ki_description" "Power symbol creates a global label with name \"GND\" , ground" (at 0 0 0)
        (effects (font (size 1.27 1.27)) hide)
      )
      (symbol "GND_0_1"
        (polyline
          (pts
            (xy 0 0)
            (xy 0 -1.27)
            (xy 1.27 -1.27)
            (xy 0 -2.54)
            (xy -1.27 -1.27)
            (xy 0 -1.27)
          )
          (stroke (width 0) (type default))
          (fill (type none))
        )
      )
      (symbol "GND_1_1"
        (pin power_in line (at 0 0 270) (length 0) hide
          (name "GND" (effects (font (size 1.27 1.27))))
          (number "1" (effects (font (size 1.27 1.27))))
        )
      )
    )
  )

  (junction (at 115.57 129.54) (diameter 0) (color 0 0 0 0)
    (uuid 164416aa-26b2-4577-afe1-4b1c796b7e60)
  )
  (junction (at 163.83 17.78) (diameter 0) (color 0 0 0 0)
    (uuid 2351c281-73fc-4587-a9a3-2786d3f59f45)
  )
  (junction (at 115.57 34.29) (diameter 0) (color 0 0 0 0)
    (uuid 264a5db8-618b-4c28-8c5f-e21f25118d67)
  )
  (junction (at 146.05 149.86) (diameter 0) (color 0 0 0 0)
    (uuid 29233b59-7510-4309-818c-75302bb02a51)
  )
  (junction (at 45.72 92.71) (diameter 0) (color 0 0 0 0)
    (uuid 2e756079-2617-4818-998d-7fa969eba720)
  )
  (junction (at 146.05 17.78) (diameter 0) (color 0 0 0 0)
    (uuid 395ecf3a-9b13-40f8-8345-1e1fad2c1840)
  )
  (junction (at 187.96 142.24) (diameter 0) (color 0 0 0 0)
    (uuid 3d00896a-3a37-4c6c-984e-fa0a11b0a7f2)
  )
  (junction (at 76.2 110.49) (diameter 0) (color 0 0 0 0)
    (uuid 3d6de206-cab8-456e-b6fb-e4d552a34743)
  )
  (junction (at 133.35 129.54) (diameter 0) (color 0 0 0 0)
    (uuid 43b55ae5-22b9-49e4-afc9-09ef12581be6)
  )
  (junction (at 187.96 149.86) (diameter 0) (color 0 0 0 0)
    (uuid 479d3269-27f1-402e-aa1d-3e20357dafcb)
  )
  (junction (at 107.95 17.78) (diameter 0) (color 0 0 0 0)
    (uuid 50fcdff6-ed3b-413c-8231-86e4c4457daf)
  )
  (junction (at 115.57 149.86) (diameter 0) (color 0 0 0 0)
    (uuid 51a3d3e5-d052-4f49-b68f-0b3e7f1d6603)
  )
  (junction (at 107.95 44.45) (diameter 0) (color 0 0 0 0)
    (uuid 571874e1-2b86-4f14-b4ad-d8cfd9f8ef23)
  )
  (junction (at 76.2 34.29) (diameter 0) (color 0 0 0 0)
    (uuid 5ab69ce5-a52a-43e9-b454-b957e93533cd)
  )
  (junction (at 68.58 44.45) (diameter 0) (color 0 0 0 0)
    (uuid 606aa62a-9a08-406f-b042-93a85e02e624)
  )
  (junction (at 115.57 92.71) (diameter 0) (color 0 0 0 0)
    (uuid 6e063686-3483-42fe-bd4a-d3b9f126ff45)
  )
  (junction (at 76.2 76.2) (diameter 0) (color 0 0 0 0)
    (uuid 71933d94-33a1-49ce-8f01-ccc0554706d1)
  )
  (junction (at 76.2 20.32) (diameter 0) (color 0 0 0 0)
    (uuid 89489f3f-ed1b-444b-b156-89e547c25649)
  )
  (junction (at 115.57 20.32) (diameter 0) (color 0 0 0 0)
    (uuid 8ef9fc3d-5da5-413e-b82e-8e49a4e35b49)
  )
  (junction (at 45.72 107.95) (diameter 0) (color 0 0 0 0)
    (uuid 9309869f-31e3-40ff-af6c-ed940714424b)
  )
  (junction (at 115.57 17.78) (diameter 0) (color 0 0 0 0)
    (uuid 9a628513-b7a3-4ef8-acc0-c1ba716a0382)
  )
  (junction (at 133.35 92.71) (diameter 0) (color 0 0 0 0)
    (uuid abc730e9-9f73-499a-ae04-63bf19d4e498)
  )
  (junction (at 163.83 110.49) (diameter 0) (color 0 0 0 0)
    (uuid b3da13df-d705-4245-98ef-0891d50ffd98)
  )
  (junction (at 91.44 76.2) (diameter 0) (color 0 0 0 0)
    (uuid b9806e86-904a-4b29-8050-6184e261f497)
  )
  (junction (at 76.2 17.78) (diameter 0) (color 0 0 0 0)
    (uuid c2e7886b-f635-4da1-8d7c-ba3edf1d0df1)
  )
  (junction (at 63.5 92.71) (diameter 0) (color 0 0 0 0)
    (uuid c69978c3-4e7c-4318-87bf-7afe21d71bdc)
  )
  (junction (at 200.66 149.86) (diameter 0) (color 0 0 0 0)
    (uuid cce1d36b-3a98-4ef5-9511-98d3c461e8ea)
  )
  (junction (at 200.66 17.78) (diameter 0) (color 0 0 0 0)
    (uuid ce7cb75d-1130-42bd-b872-e3d1d114d454)
  )
  (junction (at 187.96 25.4) (diameter 0) (color 0 0 0 0)
    (uuid e40422f9-3bb9-4ff6-8b0c-b51715670fb2)
  )
  (junction (at 146.05 110.49) (diameter 0) (color 0 0 0 0)
    (uuid ed0b1148-0618-46fc-aaa6-1d614ef5fa95)
  )
  (junction (at 163.83 149.86) (diameter 0) (color 0 0 0 0)
    (uuid ee719810-e6d3-42e6-9228-a22a96c382cb)
  )
  (junction (at 187.96 17.78) (diameter 0) (color 0 0 0 0)
    (uuid fc0f0fa8-ac5a-44b3-aa00-f694315f01d7)
  )

  (wire (pts (xy 115.57 49.53) (xy 115.57 92.71))
    (stroke (width 0) (type default))
    (uuid 0260e79f-5725-4541-9ea4-5aca7a74ec06)
  )
  (wire (pts (xy 156.21 80.01) (xy 133.35 80.01))
    (stroke (width 0) (type default))
    (uuid 04db9c6a-1724-4e9a-89db-cc8bcbb46823)
  )
  (wire (pts (xy 163.83 17.78) (xy 146.05 17.78))
    (stroke (width 0) (type default))
    (uuid 0604f5d3-2588-45bd-9b91-e2e5fe9a2156)
  )
  (wire (pts (xy 201.93 110.49) (xy 163.83 110.49))
    (stroke (width 0) (type default))
    (uuid 07769a94-ec40-4b30-bead-6d60fa0765c1)
  )
  (wire (pts (xy 133.35 80.01) (xy 133.35 92.71))
    (stroke (width 0) (type default))
    (uuid 07a2506e-0210-4832-9e3e-d8e3d2ac35bf)
  )
  (wire (pts (xy 146.05 149.86) (xy 163.83 149.86))
    (stroke (width 0) (type default))
    (uuid 094486ad-e660-4833-8a2c-b9880a666d53)
  )
  (wire (pts (xy 187.96 142.24) (xy 200.66 142.24))
    (stroke (width 0) (type default))
    (uuid 0a25ecd7-bb56-4192-9b56-e08ca050a990)
  )
  (wire (pts (xy 187.96 149.86) (xy 200.66 149.86))
    (stroke (width 0) (type default))
    (uuid 0a55cf80-79bb-4392-863e-188bf3547218)
  )
  (wire (pts (xy 234.95 86.36) (xy 234.95 17.78))
    (stroke (width 0) (type default))
    (uuid 0d9f7f98-7dd8-4a97-98ba-ff39cd747800)
  )
  (wire (pts (xy 72.39 20.32) (xy 76.2 20.32))
    (stroke (width 0) (type default))
    (uuid 104ff6a5-4922-4156-9281-8b11fcc4fd3c)
  )
  (wire (pts (xy 163.83 17.78) (xy 163.83 74.93))
    (stroke (width 0) (type default))
    (uuid 1127ae6a-79a7-4658-b228-9c97a0ad6f99)
  )
  (wire (pts (xy 163.83 149.86) (xy 187.96 149.86))
    (stroke (width 0) (type default))
    (uuid 152ec785-c3e1-4c64-987d-cc88ac236738)
  )
  (wire (pts (xy 63.5 92.71) (xy 68.58 92.71))
    (stroke (width 0) (type default))
    (uuid 17eab941-ebdb-4be6-9f78-d31c285ebc6b)
  )
  (wire (pts (xy 76.2 34.29) (xy 76.2 39.37))
    (stroke (width 0) (type default))
    (uuid 1dd25977-0bc6-4efc-ab3c-be7a805c19fe)
  )
  (wire (pts (xy 234.95 91.44) (xy 234.95 149.86))
    (stroke (width 0) (type default))
    (uuid 1e0ea3cc-fde9-4bd3-a4a5-5a147025e067)
  )
  (wire (pts (xy 45.72 107.95) (xy 63.5 107.95))
    (stroke (width 0) (type default))
    (uuid 1f82881e-9858-4f53-90fe-135a3635c55c)
  )
  (wire (pts (xy 115.57 115.57) (xy 115.57 129.54))
    (stroke (width 0) (type default))
    (uuid 2142129c-2fa1-4a68-846c-a13bc8b43ae3)
  )
  (wire (pts (xy 76.2 30.48) (xy 76.2 34.29))
    (stroke (width 0) (type default))
    (uuid 22194220-b812-44d5-b6a0-fbe6e2405870)
  )
  (wire (pts (xy 234.95 149.86) (xy 200.66 149.86))
    (stroke (width 0) (type default))
    (uuid 2587de93-ba33-4d1a-92d2-612c7d17d4b7)
  )
  (wire (pts (xy 68.58 17.78) (xy 76.2 17.78))
    (stroke (width 0) (type default))
    (uuid 2ec195a0-1ed7-4499-9934-d019bb4fe244)
  )
  (wire (pts (xy 146.05 110.49) (xy 163.83 110.49))
    (stroke (width 0) (type default))
    (uuid 2eeb3e32-ee40-4a63-8100-49a4ccc5df85)
  )
  (wire (pts (xy 115.57 129.54) (xy 115.57 137.16))
    (stroke (width 0) (type default))
    (uuid 2f9d0171-bc99-43d9-94de-cf95837ce9f1)
  )
  (wire (pts (xy 29.21 95.25) (xy 29.21 107.95))
    (stroke (width 0) (type default))
    (uuid 305f0ed6-6959-49e0-bd53-b2a75931de77)
  )
  (wire (pts (xy 163.83 111.76) (xy 163.83 110.49))
    (stroke (width 0) (type default))
    (uuid 31635536-9cc5-40d5-9a10-16923117390d)
  )
  (wire (pts (xy 26.67 95.25) (xy 29.21 95.25))
    (stroke (width 0) (type default))
    (uuid 318caf02-14e7-45e4-9aad-2c6a8bb91c1b)
  )
  (wire (pts (xy 146.05 97.79) (xy 146.05 100.33))
    (stroke (width 0) (type default))
    (uuid 35866ac7-c28f-4970-8428-8f34ed12e737)
  )
  (wire (pts (xy 72.39 26.67) (xy 72.39 20.32))
    (stroke (width 0) (type default))
    (uuid 363d1c77-7a2b-4d7a-b071-8542bf9a7f5f)
  )
  (wire (pts (xy 111.76 20.32) (xy 115.57 20.32))
    (stroke (width 0) (type default))
    (uuid 3ae898f7-1b56-4fc0-b498-91cc004ded43)
  )
  (wire (pts (xy 146.05 107.95) (xy 146.05 110.49))
    (stroke (width 0) (type default))
    (uuid 3e0d332b-da26-473e-89ed-d275dfe086f5)
  )
  (wire (pts (xy 201.93 114.3) (xy 201.93 113.03))
    (stroke (width 0) (type default))
    (uuid 45f2879a-47f5-4283-bfa5-9215c7035003)
  )
  (wire (pts (xy 76.2 76.2) (xy 91.44 76.2))
    (stroke (width 0) (type default))
    (uuid 473a25e4-aa6e-49a4-96f4-4c9b8052a87e)
  )
  (wire (pts (xy 146.05 17.78) (xy 115.57 17.78))
    (stroke (width 0) (type default))
    (uuid 4a4482c2-ba63-42b6-8380-a788fe6bd469)
  )
  (wire (pts (xy 163.83 85.09) (xy 163.83 87.63))
    (stroke (width 0) (type default))
    (uuid 4d8a7ca1-0d82-4166-9840-f15387b6aafe)
  )
  (wire (pts (xy 68.58 54.61) (xy 68.58 55.88))
    (stroke (width 0) (type default))
    (uuid 4d94ba43-29e5-48b3-8dae-968d25d456d9)
  )
  (wire (pts (xy 146.05 110.49) (xy 146.05 124.46))
    (stroke (width 0) (type default))
    (uuid 5138a9f3-cb4d-44c4-8ef5-d4e20cd40ce0)
  )
  (wire (pts (xy 91.44 86.36) (xy 91.44 88.9))
    (stroke (width 0) (type default))
    (uuid 54a84ccf-73f3-4b42-8f80-f9286a13e61c)
  )
  (wire (pts (xy 146.05 134.62) (xy 146.05 137.16))
    (stroke (width 0) (type default))
    (uuid 5b81ea61-fb23-4896-a151-2ba78f4f97cc)
  )
  (wire (pts (xy 107.95 17.78) (xy 115.57 17.78))
    (stroke (width 0) (type default))
    (uuid 5cc3913a-d240-4852-a6d6-32f143f04828)
  )
  (wire (pts (xy 101.6 76.2) (xy 104.14 76.2))
    (stroke (width 0) (type default))
    (uuid 5eb2f56a-f43d-4175-b495-b59fd77a70b8)
  )
  (wire (pts (xy 133.35 92.71) (xy 115.57 92.71))
    (stroke (width 0) (type default))
    (uuid 5fa34769-f8b5-40bb-ad20-b34d69cd4551)
  )
  (wire (pts (xy 76.2 49.53) (xy 76.2 76.2))
    (stroke (width 0) (type default))
    (uuid 604422d3-566d-411f-9ae7-05bcc58a5cba)
  )
  (wire (pts (xy 163.83 121.92) (xy 163.83 124.46))
    (stroke (width 0) (type default))
    (uuid 62ead648-d3f6-41b4-a3a9-57d66e997c6c)
  )
  (wire (pts (xy 76.2 17.78) (xy 76.2 20.32))
    (stroke (width 0) (type default))
    (uuid 6638aad9-44cb-428b-94eb-d6c6e095ec6c)
  )
  (wire (pts (xy 187.96 25.4) (xy 200.66 25.4))
    (stroke (width 0) (type default))
    (uuid 66559ff0-24c9-40a9-b7f6-10b9c987bd8c)
  )
  (wire (pts (xy 76.2 110.49) (xy 76.2 137.16))
    (stroke (width 0) (type default))
    (uuid 6f37ea94-7da2-42c8-ad90-8f59456e5443)
  )
  (wire (pts (xy 115.57 149.86) (xy 146.05 149.86))
    (stroke (width 0) (type default))
    (uuid 72c92d4f-e98e-4d99-9343-b411ce015471)
  )
  (wire (pts (xy 68.58 44.45) (xy 68.58 46.99))
    (stroke (width 0) (type default))
    (uuid 795ea168-1731-4ccd-8d6d-568b8336f4bd)
  )
  (wire (pts (xy 76.2 97.79) (xy 76.2 110.49))
    (stroke (width 0) (type default))
    (uuid 79b20393-0bbc-47f5-8eec-5db5f02ef150)
  )
  (wire (pts (xy 146.05 87.63) (xy 146.05 17.78))
    (stroke (width 0) (type default))
    (uuid 800f5c3d-cb30-45d9-81a2-66d35431d13e)
  )
  (wire (pts (xy 231.14 88.9) (xy 234.95 88.9))
    (stroke (width 0) (type default))
    (uuid 805f7c5d-ce38-4eea-81e2-387b2d0132f0)
  )
  (wire (pts (xy 115.57 92.71) (xy 115.57 105.41))
    (stroke (width 0) (type default))
    (uuid 87513155-85aa-4807-b30b-8c2d5198c4c2)
  )
  (wire (pts (xy 115.57 30.48) (xy 115.57 34.29))
    (stroke (width 0) (type default))
    (uuid 87c26dec-d2b1-47e8-9b35-f6acb11dd419)
  )
  (wire (pts (xy 111.76 26.67) (xy 111.76 20.32))
    (stroke (width 0) (type default))
    (uuid 880755d7-b20a-4614-8343-7e476bba64eb)
  )
  (wire (pts (xy 156.21 116.84) (xy 133.35 116.84))
    (stroke (width 0) (type default))
    (uuid 8920a042-fce6-4797-a1c6-c3d36e3d4eef)
  )
  (wire (pts (xy 187.96 17.78) (xy 200.66 17.78))
    (stroke (width 0) (type default))
    (uuid 8933b12c-92aa-45ba-89e5-5250fa195874)
  )
  (wire (pts (xy 76.2 17.78) (xy 107.95 17.78))
    (stroke (width 0) (type default))
    (uuid 89fe7a01-5220-44af-9c75-f7acfd3a0c9e)
  )
  (wire (pts (xy 163.83 17.78) (xy 187.96 17.78))
    (stroke (width 0) (type default))
    (uuid 8adf9596-f136-4700-8974-792fc5aa4113)
  )
  (wire (pts (xy 133.35 116.84) (xy 133.35 129.54))
    (stroke (width 0) (type default))
    (uuid 8af57da4-bcf6-474f-b1e5-d50188d1c0fe)
  )
  (wire (pts (xy 59.69 92.71) (xy 63.5 92.71))
    (stroke (width 0) (type default))
    (uuid 8c4267d1-94a6-4294-a055-0510bd4eff88)
  )
  (wire (pts (xy 68.58 29.21) (xy 68.58 17.78))
    (stroke (width 0) (type default))
    (uuid 8d0faa34-9f48-42bf-87a7-2f5f433ca942)
  )
  (wire (pts (xy 76.2 149.86) (xy 76.2 144.78))
    (stroke (width 0) (type default))
    (uuid 964c5c25-82cd-4c7b-a500-d7e5a1c3c862)
  )
  (wire (pts (xy 91.44 76.2) (xy 91.44 78.74))
    (stroke (width 0) (type default))
    (uuid 989b3666-6427-46fc-93ac-5274f7088e06)
  )
  (wire (pts (xy 163.83 95.25) (xy 163.83 110.49))
    (stroke (width 0) (type default))
    (uuid 991ceda1-6d38-4946-918c-a359ee258f22)
  )
  (wire (pts (xy 26.67 92.71) (xy 31.75 92.71))
    (stroke (width 0) (type default))
    (uuid 9bf941e1-64f1-41a9-931c-9da8611232dc)
  )
  (wire (pts (xy 76.2 20.32) (xy 76.2 22.86))
    (stroke (width 0) (type default))
    (uuid a2f40240-4f18-46ce-9586-1948c399efec)
  )
  (wire (pts (xy 115.57 34.29) (xy 115.57 39.37))
    (stroke (width 0) (type default))
    (uuid a4ac7994-5bd0-479c-bbcc-61f8bd72328f)
  )
  (wire (pts (xy 138.43 92.71) (xy 133.35 92.71))
    (stroke (width 0) (type default))
    (uuid a79e211c-604b-4879-926c-8cb35dc07763)
  )
  (wire (pts (xy 39.37 92.71) (xy 45.72 92.71))
    (stroke (width 0) (type default))
    (uuid ad6ae642-f451-4ce8-9609-6b47ec75d1b9)
  )
  (wire (pts (xy 115.57 17.78) (xy 115.57 20.32))
    (stroke (width 0) (type default))
    (uuid ae4b4414-bec1-42a9-8cf0-97da99f09678)
  )
  (wire (pts (xy 107.95 44.45) (xy 107.95 46.99))
    (stroke (width 0) (type default))
    (uuid aedf3e0c-e699-4098-abe8-9c9c67e78da9)
  )
  (wire (pts (xy 146.05 144.78) (xy 146.05 149.86))
    (stroke (width 0) (type default))
    (uuid afe99208-c173-4d94-9a4e-74bfe27bf086)
  )
  (wire (pts (xy 107.95 17.78) (xy 107.95 29.21))
    (stroke (width 0) (type default))
    (uuid b00903dd-9fc3-4aa7-877a-372f942aab4e)
  )
  (wire (pts (xy 76.2 76.2) (xy 76.2 87.63))
    (stroke (width 0) (type default))
    (uuid b2176ee3-30d9-4b79-b3c9-b26b86065a7f)
  )
  (wire (pts (xy 163.83 149.86) (xy 163.83 132.08))
    (stroke (width 0) (type default))
    (uuid b785de1f-3489-4c0f-9907-1f1557f8351f)
  )
  (wire (pts (xy 234.95 17.78) (xy 200.66 17.78))
    (stroke (width 0) (type default))
    (uuid b8c3de24-babb-478a-8adf-3171daf154e1)
  )
  (wire (pts (xy 91.44 76.2) (xy 93.98 76.2))
    (stroke (width 0) (type default))
    (uuid ba895e16-1464-4cbe-a3ee-19290b5dadc0)
  )
  (wire (pts (xy 115.57 20.32) (xy 115.57 22.86))
    (stroke (width 0) (type default))
    (uuid beddcf34-1f21-41db-bcce-976c02e6aca4)
  )
  (wire (pts (xy 68.58 39.37) (xy 68.58 44.45))
    (stroke (width 0) (type default))
    (uuid c12291d5-7f1e-4ad0-a801-1fd95f0cb7a7)
  )
  (wire (pts (xy 63.5 104.14) (xy 63.5 107.95))
    (stroke (width 0) (type default))
    (uuid c4be4972-306d-41c4-aa05-555c20715bcd)
  )
  (wire (pts (xy 76.2 149.86) (xy 115.57 149.86))
    (stroke (width 0) (type default))
    (uuid c69e226f-83ce-4f35-99ca-89d62c122251)
  )
  (wire (pts (xy 63.5 92.71) (xy 63.5 96.52))
    (stroke (width 0) (type default))
    (uuid d9352105-2b4c-4cdb-893a-98973bad8e6c)
  )
  (wire (pts (xy 115.57 129.54) (xy 133.35 129.54))
    (stroke (width 0) (type default))
    (uuid d9a40552-2e8c-4c31-b954-2213337495de)
  )
  (wire (pts (xy 45.72 92.71) (xy 52.07 92.71))
    (stroke (width 0) (type default))
    (uuid dcba6668-2b80-4a12-8947-6916ed51ff55)
  )
  (wire (pts (xy 45.72 104.14) (xy 45.72 107.95))
    (stroke (width 0) (type default))
    (uuid df17cd48-c826-4359-90c5-015291072809)
  )
  (wire (pts (xy 115.57 144.78) (xy 115.57 149.86))
    (stroke (width 0) (type default))
    (uuid df7b2e93-0b6b-4b0f-89c6-11d1a64a0688)
  )
  (wire (pts (xy 29.21 107.95) (xy 45.72 107.95))
    (stroke (width 0) (type default))
    (uuid ea3cef54-3afc-4431-b63e-a890d3782306)
  )
  (wire (pts (xy 133.35 129.54) (xy 138.43 129.54))
    (stroke (width 0) (type default))
    (uuid ed00b0e9-9ece-4012-b98c-89c20d00cdb0)
  )
  (wire (pts (xy 107.95 54.61) (xy 107.95 55.88))
    (stroke (width 0) (type default))
    (uuid f036a908-8a87-4faf-8c62-1f3d257fc12a)
  )
  (wire (pts (xy 107.95 39.37) (xy 107.95 44.45))
    (stroke (width 0) (type default))
    (uuid f6dd95e3-68ca-4c7b-9883-76aa09eccd4c)
  )
  (wire (pts (xy 45.72 96.52) (xy 45.72 92.71))
    (stroke (width 0) (type default))
    (uuid fb2e1da8-9ed8-45ec-aaa2-6e907cc4a0f4)
  )
  (wire (pts (xy 76.2 110.49) (xy 107.95 110.49))
    (stroke (width 0) (type default))
    (uuid fe769004-87c5-4d3c-a765-c74150549701)
  )

  (label "+30v" (at 234.95 64.77 0) (fields_autoplaced)
    (effects (font (size 1.27 1.27)) (justify left bottom))
    (uuid 7dd00654-4209-4823-8ccd-66c2bfcf58fb)
  )
  (label "-30v" (at 234.95 114.3 0) (fields_autoplaced)
    (effects (font (size 1.27 1.27)) (justify left bottom))
    (uuid f779f2f8-8ade-4874-8eaa-e1b898a72ed9)
  )

  (global_label "FB" (shape input) (at 104.14 76.2 0) (fields_autoplaced)
    (effects (font (size 1.27 1.27)) (justify left))
    (uuid 54a5035e-a29a-4500-893d-b22df9c23090)
    (property "Intersheetrefs" "${INTERSHEET_REFS}" (at 109.4044 76.2 0)
      (effects (font (size 1.27 1.27)) (justify left) hide)
    )
  )
  (global_label "FB" (shape input) (at 194.31 110.49 90) (fields_autoplaced)
    (effects (font (size 1.27 1.27)) (justify left))
    (uuid 671256b8-d318-4dc1-9b32-15c2cab9b00e)
    (property "Intersheetrefs" "${INTERSHEET_REFS}" (at 194.31 105.2256 90)
      (effects (font (size 1.27 1.27)) (justify left) hide)
    )
  )

  (symbol (lib_id "Device:R_Potentiometer_Trim") (at 115.57 26.67 0) (mirror y) (unit 1)
    (in_bom yes) (on_board yes) (dnp no) (fields_autoplaced)
    (uuid 07ce2d2a-7088-44fc-9ec5-db30a740e977)
    (property "Reference" "RV1" (at 118.11 26.035 0)
      (effects (font (size 1.27 1.27)) (justify right))
    )
    (property "Value" "50" (at 118.11 28.575 0)
      (effects (font (size 1.27 1.27)) (justify right))
    )
    (property "Footprint" "Potentiometer_THT:Potentiometer_Bourns_3296Y_Vertical" (at 115.57 26.67 0)
      (effects (font (size 1.27 1.27)) hide)
    )
    (property "Datasheet" "~" (at 115.57 26.67 0)
      (effects (font (size 1.27 1.27)) hide)
    )
    (pin "1" (uuid 4edd8987-a80d-40fa-93af-638ab2e37479))
    (pin "2" (uuid 37db1309-9870-43fd-8ee2-517f8267778d))
    (pin "3" (uuid c7a9ca2b-f59a-4a45-951c-040926b11a1f))
    (instances
      (project "jlh_2003"
        (path "/6897d180-d3db-4f54-ad6f-7a3c0421f462"
          (reference "RV1") (unit 1)
        )
      )
    )
  )

  (symbol (lib_id "Mechanical:MountingHole") (at 21.59 189.23 0) (unit 1)
    (in_bom yes) (on_board yes) (dnp no) (fields_autoplaced)
    (uuid 0bbad2b1-9785-414b-85f7-48ce86dcfc1e)
    (property "Reference" "H1" (at 24.13 187.9599 0)
      (effects (font (size 1.27 1.27)) (justify left))
    )
    (property "Value" "MountingHole" (at 24.13 190.4999 0)
      (effects (font (size 1.27 1.27)) (justify left))
    )
    (property "Footprint" "MountingHole:MountingHole_3.2mm_M3" (at 21.59 189.23 0)
      (effects (font (size 1.27 1.27)) hide)
    )
    (property "Datasheet" "~" (at 21.59 189.23 0)
      (effects (font (size 1.27 1.27)) hide)
    )
    (instances
      (project "jlh_2003"
        (path "/6897d180-d3db-4f54-ad6f-7a3c0421f462"
          (reference "H1") (unit 1)
        )
      )
      (project "preamp_PCB"
        (path "/894f04d6-8255-4793-9622-2ee8ab3e7da7"
          (reference "H1") (unit 1)
        )
      )
    )
  )

  (symbol (lib_id "Transistor_BJT:BD909") (at 113.03 110.49 0) (unit 1)
    (in_bom yes) (on_board yes) (dnp no) (fields_autoplaced)
    (uuid 1622de85-9398-43ee-81b3-3c8d267b186c)
    (property "Reference" "Q9" (at 118.11 109.855 0)
      (effects (font (size 1.27 1.27)) (justify left))
    )
    (property "Value" "BD909" (at 118.11 112.395 0)
      (effects (font (size 1.27 1.27)) (justify left))
    )
    (property "Footprint" "Package_TO_SOT_THT:TO-220-3_Vertical" (at 119.38 112.395 0)
      (effects (font (size 1.27 1.27) italic) (justify left) hide)
    )
    (property "Datasheet" "http://www.st.com/internet/com/TECHNICAL_RESOURCES/TECHNICAL_LITERATURE/DATASHEET/CD00001277.pdf" (at 113.03 110.49 0)
      (effects (font (size 1.27 1.27)) (justify left) hide)
    )
    (pin "1" (uuid 4d9046cb-6122-4b80-a1d7-be60f6d18d8d))
    (pin "2" (uuid 0eabefaf-c989-4d96-9355-88541a1e5444))
    (pin "3" (uuid fa44697a-f37a-472d-8a72-dce105658274))
    (instances
      (project "jlh_2003"
        (path "/6897d180-d3db-4f54-ad6f-7a3c0421f462"
          (reference "Q9") (unit 1)
        )
      )
    )
  )

  (symbol (lib_id "power:GND") (at 45.72 107.95 0) (unit 1)
    (in_bom yes) (on_board yes) (dnp no) (fields_autoplaced)
    (uuid 19acfd9d-67e7-4ac4-9b71-99f05bf91c98)
    (property "Reference" "#PWR06" (at 45.72 114.3 0)
      (effects (font (size 1.27 1.27)) hide)
    )
    (property "Value" "GND" (at 45.72 113.03 0)
      (effects (font (size 1.27 1.27)))
    )
    (property "Footprint" "" (at 45.72 107.95 0)
      (effects (font (size 1.27 1.27)) hide)
    )
    (property "Datasheet" "" (at 45.72 107.95 0)
      (effects (font (size 1.27 1.27)) hide)
    )
    (pin "1" (uuid d9ba4fbf-e8b9-43f7-8f56-97fa809445d7))
    (instances
      (project "jlh_2003"
        (path "/6897d180-d3db-4f54-ad6f-7a3c0421f462"
          (reference "#PWR06") (unit 1)
        )
      )
    )
  )

  (symbol (lib_id "Device:R") (at 107.95 50.8 0) (unit 1)
    (in_bom yes) (on_board yes) (dnp no) (fields_autoplaced)
    (uuid 23bcd9e4-a72f-4eb6-8b60-c2368f398360)
    (property "Reference" "R2" (at 110.49 50.165 0)
      (effects (font (size 1.27 1.27)) (justify left))
    )
    (property "Value" "4k7" (at 110.49 52.705 0)
      (effects (font (size 1.27 1.27)) (justify left))
    )
    (property "Footprint" "Resistor_THT:R_Axial_DIN0414_L11.9mm_D4.5mm_P20.32mm_Horizontal" (at 106.172 50.8 90)
      (effects (font (size 1.27 1.27)) hide)
    )
    (property "Datasheet" "~" (at 107.95 50.8 0)
      (effects (font (size 1.27 1.27)) hide)
    )
    (pin "1" (uuid baca0873-070e-4ac1-b162-2469b1343aad))
    (pin "2" (uuid e369c1ca-c942-4ab8-879b-303ea3171991))
    (instances
      (project "jlh_2003"
        (path "/6897d180-d3db-4f54-ad6f-7a3c0421f462"
          (reference "R2") (unit 1)
        )
      )
    )
  )

  (symbol (lib_id "Device:R") (at 146.05 140.97 180) (unit 1)
    (in_bom yes) (on_board yes) (dnp no) (fields_autoplaced)
    (uuid 28e408e0-4175-4be0-bf22-db3ae2fc60b6)
    (property "Reference" "R12" (at 148.59 140.335 0)
      (effects (font (size 1.27 1.27)) (justify right))
    )
    (property "Value" "0.1/5W" (at 148.59 142.875 0)
      (effects (font (size 1.27 1.27)) (justify right))
    )
    (property "Footprint" "Resistor_THT:R_Axial_DIN0414_L11.9mm_D4.5mm_P20.32mm_Horizontal" (at 147.828 140.97 90)
      (effects (font (size 1.27 1.27)) hide)
    )
    (property "Datasheet" "~" (at 146.05 140.97 0)
      (effects (font (size 1.27 1.27)) hide)
    )
    (pin "1" (uuid ba4a4f04-2e82-408c-b7a8-21bd283d0131))
    (pin "2" (uuid 41d7e438-9032-496a-a55e-3bfc12e138ff))
    (instances
      (project "jlh_2003"
        (path "/6897d180-d3db-4f54-ad6f-7a3c0421f462"
          (reference "R12") (unit 1)
        )
      )
    )
  )

  (symbol (lib_id "Device:R_Potentiometer_Trim") (at 76.2 26.67 0) (mirror y) (unit 1)
    (in_bom yes) (on_board yes) (dnp no) (fields_autoplaced)
    (uuid 35337052-4516-404c-853e-9ca8c2a596ef)
    (property "Reference" "RV2" (at 78.74 26.035 0)
      (effects (font (size 1.27 1.27)) (justify right))
    )
    (property "Value" "2k" (at 78.74 28.575 0)
      (effects (font (size 1.27 1.27)) (justify right))
    )
    (property "Footprint" "Potentiometer_THT:Potentiometer_Bourns_3296Y_Vertical" (at 76.2 26.67 0)
      (effects (font (size 1.27 1.27)) hide)
    )
    (property "Datasheet" "~" (at 76.2 26.67 0)
      (effects (font (size 1.27 1.27)) hide)
    )
    (pin "1" (uuid ec636d84-da2b-481b-b29e-932a3cbaa374))
    (pin "2" (uuid 4fd855ca-007b-47da-b616-47811073c53f))
    (pin "3" (uuid e19ebd9e-6cbe-4d94-a582-d657f1d2aff2))
    (instances
      (project "jlh_2003"
        (path "/6897d180-d3db-4f54-ad6f-7a3c0421f462"
          (reference "RV2") (unit 1)
        )
      )
    )
  )

  (symbol (lib_id "power:GND") (at 91.44 96.52 0) (unit 1)
    (in_bom yes) (on_board yes) (dnp no) (fields_autoplaced)
    (uuid 3ad26a14-ff89-4467-a70a-0462cc9eb7fa)
    (property "Reference" "#PWR05" (at 91.44 102.87 0)
      (effects (font (size 1.27 1.27)) hide)
    )
    (property "Value" "GND" (at 91.44 101.6 0)
      (effects (font (size 1.27 1.27)))
    )
    (property "Footprint" "" (at 91.44 96.52 0)
      (effects (font (size 1.27 1.27)) hide)
    )
    (property "Datasheet" "" (at 91.44 96.52 0)
      (effects (font (size 1.27 1.27)) hide)
    )
    (pin "1" (uuid 2b07754c-c234-4861-ae37-03f028ac7d85))
    (instances
      (project "jlh_2003"
        (path "/6897d180-d3db-4f54-ad6f-7a3c0421f462"
          (reference "#PWR05") (unit 1)
        )
      )
    )
  )

  (symbol (lib_id "Transistor_BJT:BD910") (at 71.12 34.29 180) (unit 1)
    (in_bom yes) (on_board yes) (dnp no)
    (uuid 4095e21b-2b66-487c-89ce-f876597a5bac)
    (property "Reference" "Q1" (at 66.04 34.925 0)
      (effects (font (size 1.27 1.27)) (justify left))
    )
    (property "Value" "BD910" (at 66.04 32.385 0)
      (effects (font (size 1.27 1.27)) (justify left))
    )
    (property "Footprint" "Package_TO_SOT_THT:TO-220-3_Vertical" (at 64.77 32.385 0)
      (effects (font (size 1.27 1.27) italic) (justify left) hide)
    )
    (property "Datasheet" "http://www.st.com/internet/com/TECHNICAL_RESOURCES/TECHNICAL_LITERATURE/DATASHEET/CD00001277.pdf" (at 71.12 34.29 0)
      (effects (font (size 1.27 1.27)) (justify left) hide)
    )
    (pin "1" (uuid 121c15f0-906a-4d4e-bb1b-a1737a6d069b))
    (pin "2" (uuid c2e5eb8a-6266-41e9-b840-df6bb79596fb))
    (pin "3" (uuid 1b7599ce-73bc-40a5-a52a-e342a0c43180))
    (instances
      (project "jlh_2003"
        (path "/6897d180-d3db-4f54-ad6f-7a3c0421f462"
          (reference "Q1") (unit 1)
        )
      )
    )
  )

  (symbol (lib_id "Device:R") (at 76.2 140.97 180) (unit 1)
    (in_bom yes) (on_board yes) (dnp no) (fields_autoplaced)
    (uuid 412f4176-b326-45e2-bc68-2c8740bfa642)
    (property "Reference" "R10" (at 78.74 140.335 0)
      (effects (font (size 1.27 1.27)) (justify right))
    )
    (property "Value" "8k2" (at 78.74 142.875 0)
      (effects (font (size 1.27 1.27)) (justify right))
    )
    (property "Footprint" "Resistor_THT:R_Axial_DIN0414_L11.9mm_D4.5mm_P20.32mm_Horizontal" (at 77.978 140.97 90)
      (effects (font (size 1.27 1.27)) hide)
    )
    (property "Datasheet" "~" (at 76.2 140.97 0)
      (effects (font (size 1.27 1.27)) hide)
    )
    (pin "1" (uuid 10fbbf2e-de2a-4f72-81b3-7fc3d6d460e0))
    (pin "2" (uuid 74909c0a-56a2-4dde-a6c0-9bb959fdc01a))
    (instances
      (project "jlh_2003"
        (path "/6897d180-d3db-4f54-ad6f-7a3c0421f462"
          (reference "R10") (unit 1)
        )
      )
    )
  )

  (symbol (lib_id "Device:R") (at 45.72 100.33 180) (unit 1)
    (in_bom yes) (on_board yes) (dnp no) (fields_autoplaced)
    (uuid 41e5dcae-7991-4ae9-937c-062d6fc5177c)
    (property "Reference" "R8" (at 48.26 99.695 0)
      (effects (font (size 1.27 1.27)) (justify right))
    )
    (property "Value" "47k" (at 48.26 102.235 0)
      (effects (font (size 1.27 1.27)) (justify right))
    )
    (property "Footprint" "Resistor_THT:R_Axial_DIN0414_L11.9mm_D4.5mm_P20.32mm_Horizontal" (at 47.498 100.33 90)
      (effects (font (size 1.27 1.27)) hide)
    )
    (property "Datasheet" "~" (at 45.72 100.33 0)
      (effects (font (size 1.27 1.27)) hide)
    )
    (pin "1" (uuid 283dd97e-ef25-42ea-90ac-aac6869fa44d))
    (pin "2" (uuid dab08e9c-7098-4f2a-81df-e9a9d7048126))
    (instances
      (project "jlh_2003"
        (path "/6897d180-d3db-4f54-ad6f-7a3c0421f462"
          (reference "R8") (unit 1)
        )
      )
    )
  )

  (symbol (lib_id "Connector:Screw_Terminal_01x02") (at 21.59 95.25 180) (unit 1)
    (in_bom yes) (on_board yes) (dnp no) (fields_autoplaced)
    (uuid 45d7b27b-8f78-4ab4-b6d5-7043bbf24e63)
    (property "Reference" "J2" (at 21.59 90.17 0)
      (effects (font (size 1.27 1.27)))
    )
    (property "Value" "Screw_Terminal_01x02" (at 21.59 88.9 0)
      (effects (font (size 1.27 1.27)) hide)
    )
    (property "Footprint" "TerminalBlock_Phoenix:TerminalBlock_Phoenix_MKDS-1,5-2-5.08_1x02_P5.08mm_Horizontal" (at 21.59 95.25 0)
      (effects (font (size 1.27 1.27)) hide)
    )
    (property "Datasheet" "~" (at 21.59 95.25 0)
      (effects (font (size 1.27 1.27)) hide)
    )
    (pin "1" (uuid 2a3d5694-6ab4-4916-b66d-d41b9141887c))
    (pin "2" (uuid 62cab307-30eb-4f4a-9110-c6361ff29b2e))
    (instances
      (project "jlh_2003"
        (path "/6897d180-d3db-4f54-ad6f-7a3c0421f462"
          (reference "J2") (unit 1)
        )
      )
      (project "1000W_amp"
        (path "/e56f7752-72b7-4259-970f-9513e61064ad"
          (reference "J3") (unit 1)
        )
      )
    )
  )

  (symbol (lib_id "Device:R") (at 163.83 128.27 180) (unit 1)
    (in_bom yes) (on_board yes) (dnp no) (fields_autoplaced)
    (uuid 4a63b0bb-cc3a-427e-b93c-888d4d38e651)
    (property "Reference" "R9" (at 166.37 127.635 0)
      (effects (font (size 1.27 1.27)) (justify right))
    )
    (property "Value" "0.1/5W" (at 166.37 130.175 0)
      (effects (font (size 1.27 1.27)) (justify right))
    )
    (property "Footprint" "Resistor_THT:R_Axial_DIN0414_L11.9mm_D4.5mm_P20.32mm_Horizontal" (at 165.608 128.27 90)
      (effects (font (size 1.27 1.27)) hide)
    )
    (property "Datasheet" "~" (at 163.83 128.27 0)
      (effects (font (size 1.27 1.27)) hide)
    )
    (pin "1" (uuid 9236bbdf-adb8-4a6b-94aa-ae39a19b3ae8))
    (pin "2" (uuid 46f893d0-00d9-4047-9f50-6d7df6dd92b3))
    (instances
      (project "jlh_2003"
        (path "/6897d180-d3db-4f54-ad6f-7a3c0421f462"
          (reference "R9") (unit 1)
        )
      )
    )
  )

  (symbol (lib_id "power:GND") (at 187.96 25.4 0) (unit 1)
    (in_bom yes) (on_board yes) (dnp no) (fields_autoplaced)
    (uuid 4d6a1cc7-eb0f-44ef-b703-2dd024cf001a)
    (property "Reference" "#PWR01" (at 187.96 31.75 0)
      (effects (font (size 1.27 1.27)) hide)
    )
    (property "Value" "GND" (at 187.96 30.48 0)
      (effects (font (size 1.27 1.27)))
    )
    (property "Footprint" "" (at 187.96 25.4 0)
      (effects (font (size 1.27 1.27)) hide)
    )
    (property "Datasheet" "" (at 187.96 25.4 0)
      (effects (font (size 1.27 1.27)) hide)
    )
    (pin "1" (uuid cf8ef879-5020-4c8b-97de-0733c7f376a2))
    (instances
      (project "jlh_2003"
        (path "/6897d180-d3db-4f54-ad6f-7a3c0421f462"
          (reference "#PWR01") (unit 1)
        )
      )
    )
  )

  (symbol (lib_id "Transistor_BJT:BD909") (at 143.51 129.54 0) (unit 1)
    (in_bom yes) (on_board yes) (dnp no) (fields_autoplaced)
    (uuid 50866c2b-69d4-4a25-a0a3-2268d0cab3c2)
    (property "Reference" "Q10" (at 148.59 128.905 0)
      (effects (font (size 1.27 1.27)) (justify left))
    )
    (property "Value" "2SC3858" (at 148.59 131.445 0)
      (effects (font (size 1.27 1.27)) (justify left))
    )
    (property "Footprint" "Package_TO_SOT_THT:TO-3P-3_Vertical" (at 149.86 131.445 0)
      (effects (font (size 1.27 1.27) italic) (justify left) hide)
    )
    (property "Datasheet" "http://www.st.com/internet/com/TECHNICAL_RESOURCES/TECHNICAL_LITERATURE/DATASHEET/CD00001277.pdf" (at 143.51 129.54 0)
      (effects (font (size 1.27 1.27)) (justify left) hide)
    )
    (pin "1" (uuid 38d345c8-1ba1-4180-97c6-1f3601b4b6c7))
    (pin "2" (uuid f275344e-d091-4eb1-b09a-93d15ce88a5b))
    (pin "3" (uuid 5aabbc3c-480f-4f91-ba37-f3a2a5c16f1f))
    (instances
      (project "jlh_2003"
        (path "/6897d180-d3db-4f54-ad6f-7a3c0421f462"
          (reference "Q10") (unit 1)
        )
      )
    )
  )

  (symbol (lib_id "Device:R") (at 163.83 91.44 180) (unit 1)
    (in_bom yes) (on_board yes) (dnp no) (fields_autoplaced)
    (uuid 541b7089-8c02-4bb9-9766-14d3a69c16ee)
    (property "Reference" "R4" (at 166.37 90.805 0)
      (effects (font (size 1.27 1.27)) (justify right))
    )
    (property "Value" "0.1/5W" (at 166.37 93.345 0)
      (effects (font (size 1.27 1.27)) (justify right))
    )
    (property "Footprint" "Resistor_THT:R_Axial_DIN0414_L11.9mm_D4.5mm_P20.32mm_Horizontal" (at 165.608 91.44 90)
      (effects (font (size 1.27 1.27)) hide)
    )
    (property "Datasheet" "~" (at 163.83 91.44 0)
      (effects (font (size 1.27 1.27)) hide)
    )
    (pin "1" (uuid 21f92af2-0859-449d-ba98-9d330d566a98))
    (pin "2" (uuid c29edfd4-aa45-409c-b650-27829f783c9e))
    (instances
      (project "jlh_2003"
        (path "/6897d180-d3db-4f54-ad6f-7a3c0421f462"
          (reference "R4") (unit 1)
        )
      )
    )
  )

  (symbol (lib_id "Device:C") (at 63.5 100.33 0) (unit 1)
    (in_bom yes) (on_board yes) (dnp no)
    (uuid 57eff9bd-e86c-424a-8256-89dc03354dfd)
    (property "Reference" "C5" (at 61.9045 101.9041 90)
      (effects (font (size 1.27 1.27)) (justify right))
    )
    (property "Value" "330p" (at 64.8873 101.4879 90)
      (effects (font (size 1.27 1.27)) (justify right))
    )
    (property "Footprint" "Capacitor_THT:C_Disc_D10.5mm_W5.0mm_P5.00mm" (at 64.4652 104.14 0)
      (effects (font (size 1.27 1.27)) hide)
    )
    (property "Datasheet" "~" (at 63.5 100.33 0)
      (effects (font (size 1.27 1.27)) hide)
    )
    (pin "1" (uuid a7a89589-f006-4618-a72b-b49ecee2b9b6))
    (pin "2" (uuid 10802cd1-6a41-4c56-ad63-d7dd6925d287))
    (instances
      (project "jlh_2003"
        (path "/6897d180-d3db-4f54-ad6f-7a3c0421f462"
          (reference "C5") (unit 1)
        )
      )
      (project "1000W_amp"
        (path "/e56f7752-72b7-4259-970f-9513e61064ad"
          (reference "C11") (unit 1)
        )
      )
    )
  )

  (symbol (lib_id "Transistor_BJT:BD910") (at 113.03 44.45 0) (mirror x) (unit 1)
    (in_bom yes) (on_board yes) (dnp no)
    (uuid 5ac27387-b4c4-45cc-a9fe-69a4b49e120b)
    (property "Reference" "Q4" (at 118.11 45.085 0)
      (effects (font (size 1.27 1.27)) (justify left))
    )
    (property "Value" "BD910" (at 118.11 42.545 0)
      (effects (font (size 1.27 1.27)) (justify left))
    )
    (property "Footprint" "Package_TO_SOT_THT:TO-220-3_Vertical" (at 119.38 42.545 0)
      (effects (font (size 1.27 1.27) italic) (justify left) hide)
    )
    (property "Datasheet" "http://www.st.com/internet/com/TECHNICAL_RESOURCES/TECHNICAL_LITERATURE/DATASHEET/CD00001277.pdf" (at 113.03 44.45 0)
      (effects (font (size 1.27 1.27)) (justify left) hide)
    )
    (pin "1" (uuid a1b575c9-ed0b-4bae-9851-6ac157ca1ae7))
    (pin "2" (uuid 07318b7d-675a-48eb-b3d5-80e04cdd2bc0))
    (pin "3" (uuid 5e966e48-7cf7-4ac5-96e9-796afcc0b60b))
    (instances
      (project "jlh_2003"
        (path "/6897d180-d3db-4f54-ad6f-7a3c0421f462"
          (reference "Q4") (unit 1)
        )
      )
    )
  )

  (symbol (lib_id "Mechanical:MountingHole") (at 52.07 189.23 0) (unit 1)
    (in_bom yes) (on_board yes) (dnp no) (fields_autoplaced)
    (uuid 62feeb2e-5971-4f83-9d21-79a42c4d2351)
    (property "Reference" "H5" (at 54.61 187.9599 0)
      (effects (font (size 1.27 1.27)) (justify left))
    )
    (property "Value" "MountingHole" (at 54.61 190.4999 0)
      (effects (font (size 1.27 1.27)) (justify left))
    )
    (property "Footprint" "MountingHole:MountingHole_3.2mm_M3" (at 52.07 189.23 0)
      (effects (font (size 1.27 1.27)) hide)
    )
    (property "Datasheet" "~" (at 52.07 189.23 0)
      (effects (font (size 1.27 1.27)) hide)
    )
    (instances
      (project "jlh_2003"
        (path "/6897d180-d3db-4f54-ad6f-7a3c0421f462"
          (reference "H5") (unit 1)
        )
      )
      (project "preamp_PCB"
        (path "/894f04d6-8255-4793-9622-2ee8ab3e7da7"
          (reference "H4") (unit 1)
        )
      )
    )
  )

  (symbol (lib_id "Transistor_BJT:BD910") (at 73.66 92.71 0) (mirror x) (unit 1)
    (in_bom yes) (on_board yes) (dnp no)
    (uuid 6651d504-83c7-4a69-b0b4-547e5f442594)
    (property "Reference" "Q7" (at 78.74 93.345 0)
      (effects (font (size 1.27 1.27)) (justify left))
    )
    (property "Value" "BD910" (at 78.74 90.805 0)
      (effects (font (size 1.27 1.27)) (justify left))
    )
    (property "Footprint" "Package_TO_SOT_THT:TO-220-3_Vertical" (at 80.01 90.805 0)
      (effects (font (size 1.27 1.27) italic) (justify left) hide)
    )
    (property "Datasheet" "http://www.st.com/internet/com/TECHNICAL_RESOURCES/TECHNICAL_LITERATURE/DATASHEET/CD00001277.pdf" (at 73.66 92.71 0)
      (effects (font (size 1.27 1.27)) (justify left) hide)
    )
    (pin "1" (uuid b066071a-2e98-4c70-a5a2-cc8edb1db5fd))
    (pin "2" (uuid 81ef37cb-055c-40f1-9330-9ce268837a16))
    (pin "3" (uuid bc8b81b6-a6e0-478a-829c-d0afa17d7ca4))
    (instances
      (project "jlh_2003"
        (path "/6897d180-d3db-4f54-ad6f-7a3c0421f462"
          (reference "Q7") (unit 1)
        )
      )
    )
  )

  (symbol (lib_id "Device:C") (at 200.66 146.05 0) (mirror y) (unit 1)
    (in_bom yes) (on_board yes) (dnp no) (fields_autoplaced)
    (uuid 6b9f5bfc-9117-4cdd-8b15-17581445a6bb)
    (property "Reference" "C7" (at 204.47 145.415 0)
      (effects (font (size 1.27 1.27)) (justify right))
    )
    (property "Value" "100n" (at 204.47 147.955 0)
      (effects (font (size 1.27 1.27)) (justify right))
    )
    (property "Footprint" "Capacitor_THT:C_Rect_L10.0mm_W3.0mm_P7.50mm_FKS3_FKP3" (at 199.6948 149.86 0)
      (effects (font (size 1.27 1.27)) hide)
    )
    (property "Datasheet" "~" (at 200.66 146.05 0)
      (effects (font (size 1.27 1.27)) hide)
    )
    (pin "1" (uuid 157013b5-87e2-4629-ab38-6f58758a33b1))
    (pin "2" (uuid 93a1c558-4440-4145-b338-5755071dd9d0))
    (instances
      (project "jlh_2003"
        (path "/6897d180-d3db-4f54-ad6f-7a3c0421f462"
          (reference "C7") (unit 1)
        )
      )
    )
  )

  (symbol (lib_id "Transistor_BJT:BD909") (at 161.29 80.01 0) (unit 1)
    (in_bom yes) (on_board yes) (dnp no) (fields_autoplaced)
    (uuid 713775d1-a288-413d-ac1c-2e8193fb9467)
    (property "Reference" "Q5" (at 166.37 79.375 0)
      (effects (font (size 1.27 1.27)) (justify left))
    )
    (property "Value" "2SC3858" (at 166.37 81.915 0)
      (effects (font (size 1.27 1.27)) (justify left))
    )
    (property "Footprint" "Package_TO_SOT_THT:TO-3P-3_Vertical" (at 167.64 81.915 0)
      (effects (font (size 1.27 1.27) italic) (justify left) hide)
    )
    (property "Datasheet" "http://www.st.com/internet/com/TECHNICAL_RESOURCES/TECHNICAL_LITERATURE/DATASHEET/CD00001277.pdf" (at 161.29 80.01 0)
      (effects (font (size 1.27 1.27)) (justify left) hide)
    )
    (pin "1" (uuid 32f4c7a6-8f7d-4aa4-991a-2e481ab8ace8))
    (pin "2" (uuid edae24aa-75b9-4eae-8bca-16eecaf994d9))
    (pin "3" (uuid 1e340b75-603f-4936-9805-f35cbdf55ab9))
    (instances
      (project "jlh_2003"
        (path "/6897d180-d3db-4f54-ad6f-7a3c0421f462"
          (reference "Q5") (unit 1)
        )
      )
    )
  )

  (symbol (lib_id "Mechanical:Heatsink") (at 71.12 82.55 180) (unit 1)
    (in_bom yes) (on_board yes) (dnp no)
    (uuid 73ee7456-7d95-436d-af36-30ec057415e4)
    (property "Reference" "HS3" (at 63.5 82.55 0)
      (effects (font (size 1.27 1.27)) (justify right))
    )
    (property "Value" "Heatsink" (at 58.42 85.09 0)
      (effects (font (size 1.27 1.27)) (justify right))
    )
    (property "Footprint" "Heatsink:Heatsink_Fischer_SK104-STC-STIC_35x13mm_2xDrill2.5mm" (at 70.8152 82.55 0)
      (effects (font (size 1.27 1.27)) hide)
    )
    (property "Datasheet" "~" (at 70.8152 82.55 0)
      (effects (font (size 1.27 1.27)) hide)
    )
    (instances
      (project "jlh_2003"
        (path "/6897d180-d3db-4f54-ad6f-7a3c0421f462"
          (reference "HS3") (unit 1)
        )
      )
      (project "1000W_amp"
        (path "/e56f7752-72b7-4259-970f-9513e61064ad"
          (reference "HS4") (unit 1)
        )
      )
    )
  )

  (symbol (lib_id "Mechanical:Heatsink") (at 102.87 38.1 180) (unit 1)
    (in_bom yes) (on_board yes) (dnp no)
    (uuid 7a3f30f3-a0d9-4b33-820f-831c877146c3)
    (property "Reference" "HS1" (at 95.25 38.1 0)
      (effects (font (size 1.27 1.27)) (justify right))
    )
    (property "Value" "Heatsink" (at 90.17 40.64 0)
      (effects (font (size 1.27 1.27)) (justify right))
    )
    (property "Footprint" "Heatsink:Heatsink_Fischer_SK104-STC-STIC_35x13mm_2xDrill2.5mm" (at 102.5652 38.1 0)
      (effects (font (size 1.27 1.27)) hide)
    )
    (property "Datasheet" "~" (at 102.5652 38.1 0)
      (effects (font (size 1.27 1.27)) hide)
    )
    (instances
      (project "jlh_2003"
        (path "/6897d180-d3db-4f54-ad6f-7a3c0421f462"
          (reference "HS1") (unit 1)
        )
      )
      (project "1000W_amp"
        (path "/e56f7752-72b7-4259-970f-9513e61064ad"
          (reference "HS4") (unit 1)
        )
      )
    )
  )

  (symbol (lib_id "Connector:Screw_Terminal_01x02") (at 207.01 113.03 0) (mirror x) (unit 1)
    (in_bom yes) (on_board yes) (dnp no)
    (uuid 828a4a08-7117-4b23-9d9f-b6fb9ea89239)
    (property "Reference" "J3" (at 209.55 111.125 0)
      (effects (font (size 1.27 1.27)) (justify left))
    )
    (property "Value" "Screw_Terminal_01x02" (at 207.01 106.68 0)
      (effects (font (size 1.27 1.27)) hide)
    )
    (property "Footprint" "TerminalBlock_Phoenix:TerminalBlock_Phoenix_MKDS-1,5-2-5.08_1x02_P5.08mm_Horizontal" (at 207.01 113.03 0)
      (effects (font (size 1.27 1.27)) hide)
    )
    (property "Datasheet" "~" (at 207.01 113.03 0)
      (effects (font (size 1.27 1.27)) hide)
    )
    (pin "1" (uuid 52cac752-927c-454f-9446-bd7f185e23db))
    (pin "2" (uuid 65db6678-7b61-4b2d-8450-3d6217e80672))
    (instances
      (project "jlh_2003"
        (path "/6897d180-d3db-4f54-ad6f-7a3c0421f462"
          (reference "J3") (unit 1)
        )
      )
      (project "1000W_amp"
        (path "/e56f7752-72b7-4259-970f-9513e61064ad"
          (reference "J3") (unit 1)
        )
      )
    )
  )

  (symbol (lib_id "Device:R") (at 115.57 140.97 180) (unit 1)
    (in_bom yes) (on_board yes) (dnp no) (fields_autoplaced)
    (uuid 8468f04c-a3e4-4a73-8dad-f7b3006c4220)
    (property "Reference" "R11" (at 118.11 140.335 0)
      (effects (font (size 1.27 1.27)) (justify right))
    )
    (property "Value" "2k2" (at 118.11 142.875 0)
      (effects (font (size 1.27 1.27)) (justify right))
    )
    (property "Footprint" "Resistor_THT:R_Axial_DIN0414_L11.9mm_D4.5mm_P20.32mm_Horizontal" (at 117.348 140.97 90)
      (effects (font (size 1.27 1.27)) hide)
    )
    (property "Datasheet" "~" (at 115.57 140.97 0)
      (effects (font (size 1.27 1.27)) hide)
    )
    (pin "1" (uuid 289ea394-1491-431a-bff8-754c57da8d95))
    (pin "2" (uuid 163ec23f-b346-4378-8497-f4e0adaabf8c))
    (instances
      (project "jlh_2003"
        (path "/6897d180-d3db-4f54-ad6f-7a3c0421f462"
          (reference "R11") (unit 1)
        )
      )
    )
  )

  (symbol (lib_id "Mechanical:MountingHole") (at 44.45 189.23 0) (unit 1)
    (in_bom yes) (on_board yes) (dnp no) (fields_autoplaced)
    (uuid 8569c508-dd3b-424f-ad50-ba0a1c21ff6f)
    (property "Reference" "H4" (at 46.99 187.9599 0)
      (effects (font (size 1.27 1.27)) (justify left))
    )
    (property "Value" "MountingHole" (at 46.99 190.4999 0)
      (effects (font (size 1.27 1.27)) (justify left))
    )
    (property "Footprint" "MountingHole:MountingHole_3.2mm_M3" (at 44.45 189.23 0)
      (effects (font (size 1.27 1.27)) hide)
    )
    (property "Datasheet" "~" (at 44.45 189.23 0)
      (effects (font (size 1.27 1.27)) hide)
    )
    (instances
      (project "jlh_2003"
        (path "/6897d180-d3db-4f54-ad6f-7a3c0421f462"
          (reference "H4") (unit 1)
        )
      )
      (project "preamp_PCB"
        (path "/894f04d6-8255-4793-9622-2ee8ab3e7da7"
          (reference "H4") (unit 1)
        )
      )
    )
  )

  (symbol (lib_id "Device:C_Polarized") (at 91.44 92.71 0) (unit 1)
    (in_bom yes) (on_board yes) (dnp no) (fields_autoplaced)
    (uuid 8a0f3a33-f8d7-4fe7-9ef1-a863758e0a1c)
    (property "Reference" "C4" (at 95.25 91.186 0)
      (effects (font (size 1.27 1.27)) (justify left))
    )
    (property "Value" "470u" (at 95.25 93.726 0)
      (effects (font (size 1.27 1.27)) (justify left))
    )
    (property "Footprint" "Capacitor_THT:CP_Radial_D13.0mm_P5.00mm" (at 92.4052 96.52 0)
      (effects (font (size 1.27 1.27)) hide)
    )
    (property "Datasheet" "~" (at 91.44 92.71 0)
      (effects (font (size 1.27 1.27)) hide)
    )
    (pin "1" (uuid 1693d842-91c2-4773-8da5-e38e7fffa4e0))
    (pin "2" (uuid 39474079-3713-4ae4-8ffd-cceb8253f654))
    (instances
      (project "jlh_2003"
        (path "/6897d180-d3db-4f54-ad6f-7a3c0421f462"
          (reference "C4") (unit 1)
        )
      )
    )
  )

  (symbol (lib_id "Transistor_BJT:BD910") (at 110.49 34.29 180) (unit 1)
    (in_bom yes) (on_board yes) (dnp no)
    (uuid 8b4f95a8-0bc2-48ec-845e-c04aac884e58)
    (property "Reference" "Q2" (at 105.41 34.925 0)
      (effects (font (size 1.27 1.27)) (justify left))
    )
    (property "Value" "BD910" (at 105.41 32.385 0)
      (effects (font (size 1.27 1.27)) (justify left))
    )
    (property "Footprint" "Package_TO_SOT_THT:TO-220-3_Vertical" (at 104.14 32.385 0)
      (effects (font (size 1.27 1.27) italic) (justify left) hide)
    )
    (property "Datasheet" "http://www.st.com/internet/com/TECHNICAL_RESOURCES/TECHNICAL_LITERATURE/DATASHEET/CD00001277.pdf" (at 110.49 34.29 0)
      (effects (font (size 1.27 1.27)) (justify left) hide)
    )
    (pin "1" (uuid 20ee8cbe-bfc1-47eb-abf6-a758b4d81168))
    (pin "2" (uuid 8ffef019-af9f-435c-9fff-10d7d9342264))
    (pin "3" (uuid 79f5659b-11ea-447b-b8ff-6ce0baa6a029))
    (instances
      (project "jlh_2003"
        (path "/6897d180-d3db-4f54-ad6f-7a3c0421f462"
          (reference "Q2") (unit 1)
        )
      )
    )
  )

  (symbol (lib_id "Mechanical:Heatsink") (at 63.5 38.1 180) (unit 1)
    (in_bom yes) (on_board yes) (dnp no)
    (uuid 8ed839dc-a47e-4fa6-9dde-363bcbe7182a)
    (property "Reference" "HS2" (at 55.88 38.1 0)
      (effects (font (size 1.27 1.27)) (justify right))
    )
    (property "Value" "Heatsink" (at 50.8 40.64 0)
      (effects (font (size 1.27 1.27)) (justify right))
    )
    (property "Footprint" "Heatsink:Heatsink_Fischer_SK104-STC-STIC_35x13mm_2xDrill2.5mm" (at 63.1952 38.1 0)
      (effects (font (size 1.27 1.27)) hide)
    )
    (property "Datasheet" "~" (at 63.1952 38.1 0)
      (effects (font (size 1.27 1.27)) hide)
    )
    (instances
      (project "jlh_2003"
        (path "/6897d180-d3db-4f54-ad6f-7a3c0421f462"
          (reference "HS2") (unit 1)
        )
      )
      (project "1000W_amp"
        (path "/e56f7752-72b7-4259-970f-9513e61064ad"
          (reference "HS4") (unit 1)
        )
      )
    )
  )

  (symbol (lib_id "Mechanical:MountingHole") (at 29.21 189.23 0) (unit 1)
    (in_bom yes) (on_board yes) (dnp no) (fields_autoplaced)
    (uuid 93ee5e3d-cb6d-43f2-b089-b5f36502136a)
    (property "Reference" "H2" (at 31.75 187.9599 0)
      (effects (font (size 1.27 1.27)) (justify left))
    )
    (property "Value" "MountingHole" (at 31.75 190.4999 0)
      (effects (font (size 1.27 1.27)) (justify left))
    )
    (property "Footprint" "MountingHole:MountingHole_3.2mm_M3" (at 29.21 189.23 0)
      (effects (font (size 1.27 1.27)) hide)
    )
    (property "Datasheet" "~" (at 29.21 189.23 0)
      (effects (font (size 1.27 1.27)) hide)
    )
    (instances
      (project "jlh_2003"
        (path "/6897d180-d3db-4f54-ad6f-7a3c0421f462"
          (reference "H2") (unit 1)
        )
      )
      (project "preamp_PCB"
        (path "/894f04d6-8255-4793-9622-2ee8ab3e7da7"
          (reference "H2") (unit 1)
        )
      )
    )
  )

  (symbol (lib_id "Transistor_BJT:BD909") (at 143.51 92.71 0) (unit 1)
    (in_bom yes) (on_board yes) (dnp no) (fields_autoplaced)
    (uuid a0900137-a002-4710-bb39-73e103a96435)
    (property "Reference" "Q6" (at 148.59 92.075 0)
      (effects (font (size 1.27 1.27)) (justify left))
    )
    (property "Value" "2SC3858" (at 148.59 94.615 0)
      (effects (font (size 1.27 1.27)) (justify left))
    )
    (property "Footprint" "Package_TO_SOT_THT:TO-3P-3_Vertical" (at 149.86 94.615 0)
      (effects (font (size 1.27 1.27) italic) (justify left) hide)
    )
    (property "Datasheet" "http://www.st.com/internet/com/TECHNICAL_RESOURCES/TECHNICAL_LITERATURE/DATASHEET/CD00001277.pdf" (at 143.51 92.71 0)
      (effects (font (size 1.27 1.27)) (justify left) hide)
    )
    (pin "1" (uuid 6e03ca5b-bde3-42ed-8ee2-52c80f83a0b8))
    (pin "2" (uuid 8eb8e31d-df89-4e79-856b-20ae7796d457))
    (pin "3" (uuid 8abde6c7-be0b-4ee5-b404-e32d4e88b1a1))
    (instances
      (project "jlh_2003"
        (path "/6897d180-d3db-4f54-ad6f-7a3c0421f462"
          (reference "Q6") (unit 1)
        )
      )
    )
  )

  (symbol (lib_id "power:GND") (at 107.95 55.88 0) (unit 1)
    (in_bom yes) (on_board yes) (dnp no) (fields_autoplaced)
    (uuid a0d8d1e1-badc-4e88-af90-737f0ebf4dfd)
    (property "Reference" "#PWR03" (at 107.95 62.23 0)
      (effects (font (size 1.27 1.27)) hide)
    )
    (property "Value" "GND" (at 107.95 60.96 0)
      (effects (font (size 1.27 1.27)))
    )
    (property "Footprint" "" (at 107.95 55.88 0)
      (effects (font (size 1.27 1.27)) hide)
    )
    (property "Datasheet" "" (at 107.95 55.88 0)
      (effects (font (size 1.27 1.27)) hide)
    )
    (pin "1" (uuid 594acc53-48a5-4b8e-b571-cea9b36a3060))
    (instances
      (project "jlh_2003"
        (path "/6897d180-d3db-4f54-ad6f-7a3c0421f462"
          (reference "#PWR03") (unit 1)
        )
      )
    )
  )

  (symbol (lib_id "Transistor_BJT:BD909") (at 161.29 116.84 0) (unit 1)
    (in_bom yes) (on_board yes) (dnp no) (fields_autoplaced)
    (uuid a3dde7b3-c34e-4f68-8b0a-e33212fc9656)
    (property "Reference" "Q8" (at 166.37 116.205 0)
      (effects (font (size 1.27 1.27)) (justify left))
    )
    (property "Value" "2SC3858" (at 166.37 118.745 0)
      (effects (font (size 1.27 1.27)) (justify left))
    )
    (property "Footprint" "Package_TO_SOT_THT:TO-3P-3_Vertical" (at 167.64 118.745 0)
      (effects (font (size 1.27 1.27) italic) (justify left) hide)
    )
    (property "Datasheet" "http://www.st.com/internet/com/TECHNICAL_RESOURCES/TECHNICAL_LITERATURE/DATASHEET/CD00001277.pdf" (at 161.29 116.84 0)
      (effects (font (size 1.27 1.27)) (justify left) hide)
    )
    (pin "1" (uuid 3ac8c6cd-7e6a-4478-b8fd-6d6041a4a434))
    (pin "2" (uuid f8799e31-1732-4567-af99-f935a8f4226a))
    (pin "3" (uuid b4856959-5427-4b7e-9ef3-cc1abde2f694))
    (instances
      (project "jlh_2003"
        (path "/6897d180-d3db-4f54-ad6f-7a3c0421f462"
          (reference "Q8") (unit 1)
        )
      )
    )
  )

  (symbol (lib_id "Device:R") (at 55.88 92.71 90) (unit 1)
    (in_bom yes) (on_board yes) (dnp no) (fields_autoplaced)
    (uuid b878be7a-159d-4b41-8102-6222a34b5f00)
    (property "Reference" "R6" (at 55.88 87.63 90)
      (effects (font (size 1.27 1.27)))
    )
    (property "Value" "4k7" (at 55.88 90.17 90)
      (effects (font (size 1.27 1.27)))
    )
    (property "Footprint" "Resistor_THT:R_Axial_DIN0414_L11.9mm_D4.5mm_P20.32mm_Horizontal" (at 55.88 94.488 90)
      (effects (font (size 1.27 1.27)) hide)
    )
    (property "Datasheet" "~" (at 55.88 92.71 0)
      (effects (font (size 1.27 1.27)) hide)
    )
    (pin "1" (uuid ec724ddd-8309-45c8-9a4f-c818b1c1133b))
    (pin "2" (uuid e0f79292-636f-42ac-a55b-869b06948ce6))
    (instances
      (project "jlh_2003"
        (path "/6897d180-d3db-4f54-ad6f-7a3c0421f462"
          (reference "R6") (unit 1)
        )
      )
    )
  )

  (symbol (lib_id "Mechanical:Heatsink") (at 109.22 115.57 180) (unit 1)
    (in_bom yes) (on_board yes) (dnp no)
    (uuid c0571d80-27d9-4920-8933-9d52eda3865e)
    (property "Reference" "HS4" (at 101.6 115.57 0)
      (effects (font (size 1.27 1.27)) (justify right))
    )
    (property "Value" "Heatsink" (at 96.52 118.11 0)
      (effects (font (size 1.27 1.27)) (justify right))
    )
    (property "Footprint" "Heatsink:Heatsink_Fischer_SK104-STC-STIC_35x13mm_2xDrill2.5mm" (at 108.9152 115.57 0)
      (effects (font (size 1.27 1.27)) hide)
    )
    (property "Datasheet" "~" (at 108.9152 115.57 0)
      (effects (font (size 1.27 1.27)) hide)
    )
    (instances
      (project "jlh_2003"
        (path "/6897d180-d3db-4f54-ad6f-7a3c0421f462"
          (reference "HS4") (unit 1)
        )
      )
      (project "1000W_amp"
        (path "/e56f7752-72b7-4259-970f-9513e61064ad"
          (reference "HS4") (unit 1)
        )
      )
    )
  )

  (symbol (lib_id "power:GND") (at 187.96 142.24 0) (mirror x) (unit 1)
    (in_bom yes) (on_board yes) (dnp no) (fields_autoplaced)
    (uuid c0c836f1-abd7-41a7-9b45-2ceed7c30109)
    (property "Reference" "#PWR08" (at 187.96 135.89 0)
      (effects (font (size 1.27 1.27)) hide)
    )
    (property "Value" "GND" (at 187.96 137.16 0)
      (effects (font (size 1.27 1.27)))
    )
    (property "Footprint" "" (at 187.96 142.24 0)
      (effects (font (size 1.27 1.27)) hide)
    )
    (property "Datasheet" "" (at 187.96 142.24 0)
      (effects (font (size 1.27 1.27)) hide)
    )
    (pin "1" (uuid 578d45e7-ff09-4f93-8a62-707afd9f0695))
    (instances
      (project "jlh_2003"
        (path "/6897d180-d3db-4f54-ad6f-7a3c0421f462"
          (reference "#PWR08") (unit 1)
        )
      )
    )
  )

  (symbol (lib_id "Connector:Screw_Terminal_01x03") (at 240.03 88.9 0) (mirror x) (unit 1)
    (in_bom yes) (on_board yes) (dnp no)
    (uuid c1b25985-a1e0-47c3-9015-aaf5b52998a4)
    (property "Reference" "J1" (at 242.57 88.9 90)
      (effects (font (size 1.27 1.27)))
    )
    (property "Value" "Screw_Terminal_01x03" (at 242.57 88.9 90)
      (effects (font (size 1.27 1.27)) hide)
    )
    (property "Footprint" "TerminalBlock_Phoenix:TerminalBlock_Phoenix_MKDS-3-3-5.08_1x03_P5.08mm_Horizontal" (at 240.03 88.9 0)
      (effects (font (size 1.27 1.27)) hide)
    )
    (property "Datasheet" "~" (at 240.03 88.9 0)
      (effects (font (size 1.27 1.27)) hide)
    )
    (pin "1" (uuid ac6d878f-008b-4bd6-9019-a81956991c67))
    (pin "2" (uuid 6e3a540f-b4ed-4090-8f21-eba43873b28f))
    (pin "3" (uuid 1ecef473-dca6-47b4-a2cc-8274eb0c6894))
    (instances
      (project "jlh_2003"
        (path "/6897d180-d3db-4f54-ad6f-7a3c0421f462"
          (reference "J1") (unit 1)
        )
      )
      (project "preamp_PCB"
        (path "/894f04d6-8255-4793-9622-2ee8ab3e7da7"
          (reference "J5") (unit 1)
        )
      )
    )
  )

  (symbol (lib_id "Mechanical:MountingHole") (at 36.83 189.23 0) (unit 1)
    (in_bom yes) (on_board yes) (dnp no) (fields_autoplaced)
    (uuid c51e1a8f-f940-4982-8478-a9c215099a78)
    (property "Reference" "H3" (at 39.37 187.9599 0)
      (effects (font (size 1.27 1.27)) (justify left))
    )
    (property "Value" "MountingHole" (at 39.37 190.4999 0)
      (effects (font (size 1.27 1.27)) (justify left))
    )
    (property "Footprint" "MountingHole:MountingHole_3.2mm_M3" (at 36.83 189.23 0)
      (effects (font (size 1.27 1.27)) hide)
    )
    (property "Datasheet" "~" (at 36.83 189.23 0)
      (effects (font (size 1.27 1.27)) hide)
    )
    (instances
      (project "jlh_2003"
        (path "/6897d180-d3db-4f54-ad6f-7a3c0421f462"
          (reference "H3") (unit 1)
        )
      )
      (project "preamp_PCB"
        (path "/894f04d6-8255-4793-9622-2ee8ab3e7da7"
          (reference "H3") (unit 1)
        )
      )
    )
  )

  (symbol (lib_id "Device:R") (at 97.79 76.2 270) (unit 1)
    (in_bom yes) (on_board yes) (dnp no) (fields_autoplaced)
    (uuid c71dae18-1b76-463b-a0d8-7df9e1e7030f)
    (property "Reference" "R3" (at 97.79 71.12 90)
      (effects (font (size 1.27 1.27)))
    )
    (property "Value" "2k7" (at 97.79 73.66 90)
      (effects (font (size 1.27 1.27)))
    )
    (property "Footprint" "Resistor_THT:R_Axial_DIN0414_L11.9mm_D4.5mm_P20.32mm_Horizontal" (at 97.79 74.422 90)
      (effects (font (size 1.27 1.27)) hide)
    )
    (property "Datasheet" "~" (at 97.79 76.2 0)
      (effects (font (size 1.27 1.27)) hide)
    )
    (pin "1" (uuid c73b8fa9-ae03-4cea-a8a1-5e45af6f84cb))
    (pin "2" (uuid 752e1d6d-03b2-4062-9872-33194e4aca48))
    (instances
      (project "jlh_2003"
        (path "/6897d180-d3db-4f54-ad6f-7a3c0421f462"
          (reference "R3") (unit 1)
        )
      )
    )
  )

  (symbol (lib_id "Transistor_BJT:BD910") (at 73.66 44.45 0) (mirror x) (unit 1)
    (in_bom yes) (on_board yes) (dnp no)
    (uuid d0bc43f9-1b5f-4d8c-a388-ad4a61c937cc)
    (property "Reference" "Q3" (at 78.74 45.085 0)
      (effects (font (size 1.27 1.27)) (justify left))
    )
    (property "Value" "BD910" (at 78.74 42.545 0)
      (effects (font (size 1.27 1.27)) (justify left))
    )
    (property "Footprint" "Package_TO_SOT_THT:TO-220-3_Vertical" (at 80.01 42.545 0)
      (effects (font (size 1.27 1.27) italic) (justify left) hide)
    )
    (property "Datasheet" "http://www.st.com/internet/com/TECHNICAL_RESOURCES/TECHNICAL_LITERATURE/DATASHEET/CD00001277.pdf" (at 73.66 44.45 0)
      (effects (font (size 1.27 1.27)) (justify left) hide)
    )
    (pin "1" (uuid b50dc1b5-a23f-4210-a7f4-8972c0bed3fb))
    (pin "2" (uuid 843e2c2c-23e2-43cf-a325-6ed94f729c3f))
    (pin "3" (uuid 27025e2e-7baf-4f76-9244-4af51129266f))
    (instances
      (project "jlh_2003"
        (path "/6897d180-d3db-4f54-ad6f-7a3c0421f462"
          (reference "Q3") (unit 1)
        )
      )
    )
  )

  (symbol (lib_id "Device:R") (at 146.05 104.14 180) (unit 1)
    (in_bom yes) (on_board yes) (dnp no) (fields_autoplaced)
    (uuid d25108ea-e42b-4bdc-a607-875a222eec4d)
    (property "Reference" "R7" (at 148.59 103.505 0)
      (effects (font (size 1.27 1.27)) (justify right))
    )
    (property "Value" "0.1/5W" (at 148.59 106.045 0)
      (effects (font (size 1.27 1.27)) (justify right))
    )
    (property "Footprint" "Resistor_THT:R_Axial_DIN0414_L11.9mm_D4.5mm_P20.32mm_Horizontal" (at 147.828 104.14 90)
      (effects (font (size 1.27 1.27)) hide)
    )
    (property "Datasheet" "~" (at 146.05 104.14 0)
      (effects (font (size 1.27 1.27)) hide)
    )
    (pin "1" (uuid 6b456c1e-b4f0-4103-8651-154c352b8a83))
    (pin "2" (uuid 1f57e24f-7e3c-40fd-8f8e-29a84100a548))
    (instances
      (project "jlh_2003"
        (path "/6897d180-d3db-4f54-ad6f-7a3c0421f462"
          (reference "R7") (unit 1)
        )
      )
    )
  )

  (symbol (lib_id "Mechanical:MountingHole") (at 59.69 189.23 0) (unit 1)
    (in_bom yes) (on_board yes) (dnp no) (fields_autoplaced)
    (uuid d2fe02ba-f272-4a0d-b22a-db80bf4d4b0e)
    (property "Reference" "H6" (at 62.23 187.9599 0)
      (effects (font (size 1.27 1.27)) (justify left))
    )
    (property "Value" "MountingHole" (at 62.23 190.4999 0)
      (effects (font (size 1.27 1.27)) (justify left))
    )
    (property "Footprint" "MountingHole:MountingHole_3.2mm_M3" (at 59.69 189.23 0)
      (effects (font (size 1.27 1.27)) hide)
    )
    (property "Datasheet" "~" (at 59.69 189.23 0)
      (effects (font (size 1.27 1.27)) hide)
    )
    (instances
      (project "jlh_2003"
        (path "/6897d180-d3db-4f54-ad6f-7a3c0421f462"
          (reference "H6") (unit 1)
        )
      )
      (project "preamp_PCB"
        (path "/894f04d6-8255-4793-9622-2ee8ab3e7da7"
          (reference "H4") (unit 1)
        )
      )
    )
  )

  (symbol (lib_id "Device:C") (at 35.56 92.71 90) (unit 1)
    (in_bom yes) (on_board yes) (dnp no) (fields_autoplaced)
    (uuid d4f6164a-f5fc-4437-ba24-c0bfe170e42d)
    (property "Reference" "C3" (at 35.56 86.36 90)
      (effects (font (size 1.27 1.27)))
    )
    (property "Value" "470n" (at 35.56 88.9 90)
      (effects (font (size 1.27 1.27)))
    )
    (property "Footprint" "Capacitor_THT:C_Rect_L10.0mm_W3.0mm_P7.50mm_FKS3_FKP3" (at 39.37 91.7448 0)
      (effects (font (size 1.27 1.27)) hide)
    )
    (property "Datasheet" "~" (at 35.56 92.71 0)
      (effects (font (size 1.27 1.27)) hide)
    )
    (pin "1" (uuid c0a58182-be2d-4b1b-ba75-78cc60294383))
    (pin "2" (uuid a947c18b-23c1-48b7-83f3-7247eda891ae))
    (instances
      (project "jlh_2003"
        (path "/6897d180-d3db-4f54-ad6f-7a3c0421f462"
          (reference "C3") (unit 1)
        )
      )
    )
  )

  (symbol (lib_id "Device:C_Polarized") (at 187.96 21.59 0) (unit 1)
    (in_bom yes) (on_board yes) (dnp no) (fields_autoplaced)
    (uuid d9a446b0-cb5b-4199-b815-9ac7fdc94bd1)
    (property "Reference" "C1" (at 191.77 20.066 0)
      (effects (font (size 1.27 1.27)) (justify left))
    )
    (property "Value" "220u" (at 191.77 22.606 0)
      (effects (font (size 1.27 1.27)) (justify left))
    )
    (property "Footprint" "Capacitor_THT:CP_Radial_D13.0mm_P5.00mm" (at 188.9252 25.4 0)
      (effects (font (size 1.27 1.27)) hide)
    )
    (property "Datasheet" "~" (at 187.96 21.59 0)
      (effects (font (size 1.27 1.27)) hide)
    )
    (pin "1" (uuid 690e0f41-a661-475b-97ad-b21ef20b9d20))
    (pin "2" (uuid 76081c63-c1b6-4181-b1a8-c48d719e8648))
    (instances
      (project "jlh_2003"
        (path "/6897d180-d3db-4f54-ad6f-7a3c0421f462"
          (reference "C1") (unit 1)
        )
      )
    )
  )

  (symbol (lib_id "power:GND") (at 68.58 55.88 0) (unit 1)
    (in_bom yes) (on_board yes) (dnp no) (fields_autoplaced)
    (uuid df4c998c-06d8-431c-af16-02a623d83ee2)
    (property "Reference" "#PWR02" (at 68.58 62.23 0)
      (effects (font (size 1.27 1.27)) hide)
    )
    (property "Value" "GND" (at 68.58 60.96 0)
      (effects (font (size 1.27 1.27)))
    )
    (property "Footprint" "" (at 68.58 55.88 0)
      (effects (font (size 1.27 1.27)) hide)
    )
    (property "Datasheet" "" (at 68.58 55.88 0)
      (effects (font (size 1.27 1.27)) hide)
    )
    (pin "1" (uuid aa40b81c-4eb0-42ca-beee-17f1c8212983))
    (instances
      (project "jlh_2003"
        (path "/6897d180-d3db-4f54-ad6f-7a3c0421f462"
          (reference "#PWR02") (unit 1)
        )
      )
    )
  )

  (symbol (lib_id "power:GND") (at 231.14 88.9 270) (mirror x) (unit 1)
    (in_bom yes) (on_board yes) (dnp no) (fields_autoplaced)
    (uuid e0943a92-84a6-4405-9c76-f6ac826b93b7)
    (property "Reference" "#PWR04" (at 224.79 88.9 0)
      (effects (font (size 1.27 1.27)) hide)
    )
    (property "Value" "GND" (at 227.33 89.535 90)
      (effects (font (size 1.27 1.27)) (justify right))
    )
    (property "Footprint" "" (at 231.14 88.9 0)
      (effects (font (size 1.27 1.27)) hide)
    )
    (property "Datasheet" "" (at 231.14 88.9 0)
      (effects (font (size 1.27 1.27)) hide)
    )
    (pin "1" (uuid 4770d3d5-1d55-4dab-b9cf-a21186b5a872))
    (instances
      (project "jlh_2003"
        (path "/6897d180-d3db-4f54-ad6f-7a3c0421f462"
          (reference "#PWR04") (unit 1)
        )
      )
    )
  )

  (symbol (lib_id "Device:C") (at 200.66 21.59 180) (unit 1)
    (in_bom yes) (on_board yes) (dnp no) (fields_autoplaced)
    (uuid ea1fa606-d3ce-4dcd-975e-38bccaa264cc)
    (property "Reference" "C2" (at 204.47 20.955 0)
      (effects (font (size 1.27 1.27)) (justify right))
    )
    (property "Value" "100n" (at 204.47 23.495 0)
      (effects (font (size 1.27 1.27)) (justify right))
    )
    (property "Footprint" "Capacitor_THT:C_Rect_L10.0mm_W3.0mm_P7.50mm_FKS3_FKP3" (at 199.6948 17.78 0)
      (effects (font (size 1.27 1.27)) hide)
    )
    (property "Datasheet" "~" (at 200.66 21.59 0)
      (effects (font (size 1.27 1.27)) hide)
    )
    (pin "1" (uuid cb25789d-e69d-46af-b4df-9774ac18bbdc))
    (pin "2" (uuid 54a87241-9d1b-4195-8ede-03636e98f7d8))
    (instances
      (project "jlh_2003"
        (path "/6897d180-d3db-4f54-ad6f-7a3c0421f462"
          (reference "C2") (unit 1)
        )
      )
    )
  )

  (symbol (lib_id "Device:R") (at 68.58 50.8 0) (unit 1)
    (in_bom yes) (on_board yes) (dnp no) (fields_autoplaced)
    (uuid efd11f13-b2b8-4e1c-8e6c-f400a327617e)
    (property "Reference" "R1" (at 71.12 50.165 0)
      (effects (font (size 1.27 1.27)) (justify left))
    )
    (property "Value" "10k" (at 71.12 52.705 0)
      (effects (font (size 1.27 1.27)) (justify left))
    )
    (property "Footprint" "Resistor_THT:R_Axial_DIN0414_L11.9mm_D4.5mm_P20.32mm_Horizontal" (at 66.802 50.8 90)
      (effects (font (size 1.27 1.27)) hide)
    )
    (property "Datasheet" "~" (at 68.58 50.8 0)
      (effects (font (size 1.27 1.27)) hide)
    )
    (pin "1" (uuid 4486ef79-aadc-4b94-98ae-3f63156513fa))
    (pin "2" (uuid 762dc21b-386d-4788-848a-14ec37fcaeff))
    (instances
      (project "jlh_2003"
        (path "/6897d180-d3db-4f54-ad6f-7a3c0421f462"
          (reference "R1") (unit 1)
        )
      )
    )
  )

  (symbol (lib_id "power:GND") (at 201.93 114.3 0) (unit 1)
    (in_bom yes) (on_board yes) (dnp no) (fields_autoplaced)
    (uuid f66afa53-36e4-4147-ba22-07576759875d)
    (property "Reference" "#PWR07" (at 201.93 120.65 0)
      (effects (font (size 1.27 1.27)) hide)
    )
    (property "Value" "GND" (at 201.93 119.38 0)
      (effects (font (size 1.27 1.27)))
    )
    (property "Footprint" "" (at 201.93 114.3 0)
      (effects (font (size 1.27 1.27)) hide)
    )
    (property "Datasheet" "" (at 201.93 114.3 0)
      (effects (font (size 1.27 1.27)) hide)
    )
    (pin "1" (uuid e7e4fa85-5211-4967-9a45-8407a980d959))
    (instances
      (project "jlh_2003"
        (path "/6897d180-d3db-4f54-ad6f-7a3c0421f462"
          (reference "#PWR07") (unit 1)
        )
      )
    )
  )

  (symbol (lib_id "Device:R") (at 91.44 82.55 180) (unit 1)
    (in_bom yes) (on_board yes) (dnp no) (fields_autoplaced)
    (uuid f700db9f-0b92-4146-a7c3-d1f9f0865b69)
    (property "Reference" "R5" (at 93.98 81.915 0)
      (effects (font (size 1.27 1.27)) (justify right))
    )
    (property "Value" "220" (at 93.98 84.455 0)
      (effects (font (size 1.27 1.27)) (justify right))
    )
    (property "Footprint" "Resistor_THT:R_Axial_DIN0414_L11.9mm_D4.5mm_P20.32mm_Horizontal" (at 93.218 82.55 90)
      (effects (font (size 1.27 1.27)) hide)
    )
    (property "Datasheet" "~" (at 91.44 82.55 0)
      (effects (font (size 1.27 1.27)) hide)
    )
    (pin "1" (uuid e47df933-15bf-48f3-af99-0c66c33e6e3b))
    (pin "2" (uuid 531625c7-fa83-4456-b0e0-1315ab252901))
    (instances
      (project "jlh_2003"
        (path "/6897d180-d3db-4f54-ad6f-7a3c0421f462"
          (reference "R5") (unit 1)
        )
      )
    )
  )

  (symbol (lib_id "Device:C_Polarized") (at 187.96 146.05 0) (mirror y) (unit 1)
    (in_bom yes) (on_board yes) (dnp no) (fields_autoplaced)
    (uuid f861ced2-b8be-4a90-8f2c-bd1ae63b7d53)
    (property "Reference" "C6" (at 191.77 144.526 0)
      (effects (font (size 1.27 1.27)) (justify right))
    )
    (property "Value" "220u" (at 191.77 147.066 0)
      (effects (font (size 1.27 1.27)) (justify right))
    )
    (property "Footprint" "Capacitor_THT:CP_Radial_D13.0mm_P5.00mm" (at 186.9948 149.86 0)
      (effects (font (size 1.27 1.27)) hide)
    )
    (property "Datasheet" "~" (at 187.96 146.05 0)
      (effects (font (size 1.27 1.27)) hide)
    )
    (pin "1" (uuid e201e63e-4c68-476f-b78b-454ae320cc17))
    (pin "2" (uuid bbb68750-220a-4fc8-83a7-fa3ced1f261a))
    (instances
      (project "jlh_2003"
        (path "/6897d180-d3db-4f54-ad6f-7a3c0421f462"
          (reference "C6") (unit 1)
        )
      )
    )
  )

  (sheet_instances
    (path "/" (page "1"))
  )
)
